{
  "type": "FeatureCollection",
  "generator": "overpass-ide",
  "copyright": "The data included in this document is from www.openstreetmap.org. The data is made available under ODbL.",
  "timestamp": "2020-12-22T16:22:02Z",
  "features": [
    {
      "type": "Feature",
      "properties": {
        "@id": "node/567359388",
        "amenity": "place_of_worship",
        "religion": "muslim"
      },
      "geometry": {
        "type": "Point",
        "coordinates": [
          50.1281903,
          26.3429255
        ]
      },
      "id": "node/567359388"
    },
    {
      "type": "Feature",
      "properties": {
        "@id": "node/567360357",
        "amenity": "place_of_worship",
        "name": "مسجد الصابرين",
        "religion": "muslim"
      },
      "geometry": {
        "type": "Point",
        "coordinates": [
          50.1364643,
          26.3460561
        ]
      },
      "id": "node/567360357"
    },
    {
      "type": "Feature",
      "properties": {
        "@id": "node/567361282",
        "amenity": "place_of_worship",
        "name": "مسجد سعد ابن معاذ",
        "name:ar": "مسجد سعد بن عبادة",
        "religion": "muslim"
      },
      "geometry": {
        "type": "Point",
        "coordinates": [
          50.1310484,
          26.3459868
        ]
      },
      "id": "node/567361282"
    },
    {
      "type": "Feature",
      "properties": {
        "@id": "node/567361467",
        "amenity": "place_of_worship",
        "name": "مسجد عبدالله ابن مسعود",
        "name:ar": "مسجد عبدالله بن مسود",
        "religion": "muslim"
      },
      "geometry": {
        "type": "Point",
        "coordinates": [
          50.1288941,
          26.3448792
        ]
      },
      "id": "node/567361467"
    },
    {
      "type": "Feature",
      "properties": {
        "@id": "node/567361672",
        "amenity": "place_of_worship",
        "name": "مسجد الريس",
        "religion": "muslim"
      },
      "geometry": {
        "type": "Point",
        "coordinates": [
          50.1295721,
          26.351017
        ]
      },
      "id": "node/567361672"
    },
    {
      "type": "Feature",
      "properties": {
        "@id": "node/567362007",
        "amenity": "place_of_worship",
        "name": "مسجد ابو علي",
        "religion": "muslim"
      },
      "geometry": {
        "type": "Point",
        "coordinates": [
          50.1390107,
          26.3467126
        ]
      },
      "id": "node/567362007"
    },
    {
      "type": "Feature",
      "properties": {
        "@id": "node/567362178",
        "amenity": "place_of_worship",
        "name:ar": "مسجد",
        "religion": "muslim"
      },
      "geometry": {
        "type": "Point",
        "coordinates": [
          50.1338551,
          26.3477405
        ]
      },
      "id": "node/567362178"
    },
    {
      "type": "Feature",
      "properties": {
        "@id": "node/567362542",
        "amenity": "place_of_worship",
        "name": "مسجد الحسن ابن علي ابن ابي طالب",
        "name:ar": "مسجد الحسن بن علي بن ابي طالب",
        "religion": "muslim"
      },
      "geometry": {
        "type": "Point",
        "coordinates": [
          50.1279414,
          26.3467714
        ]
      },
      "id": "node/567362542"
    },
    {
      "type": "Feature",
      "properties": {
        "@id": "node/570712563",
        "amenity": "place_of_worship",
        "religion": "muslim"
      },
      "geometry": {
        "type": "Point",
        "coordinates": [
          50.0952288,
          26.3593078
        ]
      },
      "id": "node/570712563"
    },
    {
      "type": "Feature",
      "properties": {
        "@id": "node/570713653",
        "amenity": "place_of_worship",
        "religion": "muslim"
      },
      "geometry": {
        "type": "Point",
        "coordinates": [
          50.0909587,
          26.366037
        ]
      },
      "id": "node/570713653"
    },
    {
      "type": "Feature",
      "properties": {
        "@id": "node/570714067",
        "amenity": "place_of_worship",
        "religion": "muslim"
      },
      "geometry": {
        "type": "Point",
        "coordinates": [
          50.0942094,
          26.3649123
        ]
      },
      "id": "node/570714067"
    },
    {
      "type": "Feature",
      "properties": {
        "@id": "node/1040459056",
        "amenity": "place_of_worship",
        "religion": "muslim"
      },
      "geometry": {
        "type": "Point",
        "coordinates": [
          50.1878541,
          26.3405216
        ]
      },
      "id": "node/1040459056"
    },
    {
      "type": "Feature",
      "properties": {
        "@id": "node/1330402056",
        "amenity": "place_of_worship",
        "religion": "muslim"
      },
      "geometry": {
        "type": "Point",
        "coordinates": [
          50.0875685,
          26.4564865
        ]
      },
      "id": "node/1330402056"
    },
    {
      "type": "Feature",
      "properties": {
        "@id": "node/1489669622",
        "amenity": "place_of_worship",
        "religion": "muslim"
      },
      "geometry": {
        "type": "Point",
        "coordinates": [
          50.1372867,
          26.3483364
        ]
      },
      "id": "node/1489669622"
    },
    {
      "type": "Feature",
      "properties": {
        "@id": "node/1709564751",
        "amenity": "place_of_worship",
        "religion": "muslim"
      },
      "geometry": {
        "type": "Point",
        "coordinates": [
          50.0915921,
          26.4586352
        ]
      },
      "id": "node/1709564751"
    },
    {
      "type": "Feature",
      "properties": {
        "@id": "node/2141591056",
        "amenity": "place_of_worship",
        "religion": "muslim"
      },
      "geometry": {
        "type": "Point",
        "coordinates": [
          50.1101876,
          26.3257199
        ]
      },
      "id": "node/2141591056"
    },
    {
      "type": "Feature",
      "properties": {
        "@id": "node/2141591057",
        "amenity": "place_of_worship",
        "religion": "muslim"
      },
      "geometry": {
        "type": "Point",
        "coordinates": [
          50.1086534,
          26.3285181
        ]
      },
      "id": "node/2141591057"
    },
    {
      "type": "Feature",
      "properties": {
        "@id": "node/2245129988",
        "amenity": "place_of_worship",
        "denomination": "sunni",
        "name": "Rayan Mosque",
        "religion": "muslim"
      },
      "geometry": {
        "type": "Point",
        "coordinates": [
          50.108218,
          26.4379215
        ]
      },
      "id": "node/2245129988"
    },
    {
      "type": "Feature",
      "properties": {
        "@id": "node/2245130000",
        "amenity": "place_of_worship",
        "religion": "muslim"
      },
      "geometry": {
        "type": "Point",
        "coordinates": [
          50.1059064,
          26.4439977
        ]
      },
      "id": "node/2245130000"
    },
    {
      "type": "Feature",
      "properties": {
        "@id": "node/2550260524",
        "amenity": "place_of_worship",
        "building": "mosque",
        "religion": "muslim"
      },
      "geometry": {
        "type": "Point",
        "coordinates": [
          50.1103586,
          26.4577952
        ]
      },
      "id": "node/2550260524"
    },
    {
      "type": "Feature",
      "properties": {
        "@id": "node/2570048261",
        "amenity": "place_of_worship",
        "religion": "muslim"
      },
      "geometry": {
        "type": "Point",
        "coordinates": [
          50.1855594,
          26.2847937
        ]
      },
      "id": "node/2570048261"
    },
    {
      "type": "Feature",
      "properties": {
        "@id": "node/3245969732",
        "amenity": "place_of_worship",
        "religion": "muslim"
      },
      "geometry": {
        "type": "Point",
        "coordinates": [
          50.1057736,
          26.4371845
        ]
      },
      "id": "node/3245969732"
    },
    {
      "type": "Feature",
      "properties": {
        "@id": "node/3429564958",
        "amenity": "place_of_worship",
        "name": "طلحة بن عبيدالله",
        "religion": "muslim"
      },
      "geometry": {
        "type": "Point",
        "coordinates": [
          50.1371691,
          26.3437309
        ]
      },
      "id": "node/3429564958"
    },
    {
      "type": "Feature",
      "properties": {
        "@id": "node/3429877716",
        "amenity": "place_of_worship",
        "building": "mosque",
        "name": "جامع البراك",
        "religion": "muslim"
      },
      "geometry": {
        "type": "Point",
        "coordinates": [
          50.0264722,
          26.395167
        ]
      },
      "id": "node/3429877716"
    },
    {
      "type": "Feature",
      "properties": {
        "@id": "node/3762898607",
        "amenity": "place_of_worship",
        "religion": "muslim"
      },
      "geometry": {
        "type": "Point",
        "coordinates": [
          50.0730406,
          26.3669991
        ]
      },
      "id": "node/3762898607"
    },
    {
      "type": "Feature",
      "properties": {
        "@id": "node/3762898616",
        "amenity": "place_of_worship",
        "religion": "muslim"
      },
      "geometry": {
        "type": "Point",
        "coordinates": [
          50.0785053,
          26.3704391
        ]
      },
      "id": "node/3762898616"
    },
    {
      "type": "Feature",
      "properties": {
        "@id": "node/3762898617",
        "amenity": "place_of_worship",
        "religion": "muslim"
      },
      "geometry": {
        "type": "Point",
        "coordinates": [
          50.0818939,
          26.3725893
        ]
      },
      "id": "node/3762898617"
    },
    {
      "type": "Feature",
      "properties": {
        "@id": "node/4119289990",
        "addr:street": "Abu Baker Al Siddiq Street",
        "amenity": "place_of_worship",
        "building": "mosque",
        "denomination": "sunni",
        "name": "مسجد عثمان بن عفان",
        "religion": "muslim"
      },
      "geometry": {
        "type": "Point",
        "coordinates": [
          50.0206141,
          26.3943731
        ]
      },
      "id": "node/4119289990"
    },
    {
      "type": "Feature",
      "properties": {
        "@id": "node/4119572892",
        "amenity": "place_of_worship",
        "name": "مسجد",
        "religion": "muslim"
      },
      "geometry": {
        "type": "Point",
        "coordinates": [
          50.0702808,
          26.4133757
        ]
      },
      "id": "node/4119572892"
    },
    {
      "type": "Feature",
      "properties": {
        "@id": "node/4142432196",
        "amenity": "place_of_worship",
        "name": "طارق بن شهاب",
        "religion": "muslim"
      },
      "geometry": {
        "type": "Point",
        "coordinates": [
          50.0301186,
          26.3949575
        ]
      },
      "id": "node/4142432196"
    },
    {
      "type": "Feature",
      "properties": {
        "@id": "node/4229607695",
        "amenity": "place_of_worship",
        "building": "mosque",
        "denomination": "shia",
        "name": "جامع الإمام الحسين بن علي بن أبي طالب رضي الله عنه",
        "religion": "muslim"
      },
      "geometry": {
        "type": "Point",
        "coordinates": [
          50.072174,
          26.4471141
        ]
      },
      "id": "node/4229607695"
    },
    {
      "type": "Feature",
      "properties": {
        "@id": "node/4248343390",
        "amenity": "place_of_worship",
        "building": "mosque",
        "name": "Al Firdous Mosque جامع الفردوس",
        "religion": "muslim"
      },
      "geometry": {
        "type": "Point",
        "coordinates": [
          50.198984,
          26.3526422
        ]
      },
      "id": "node/4248343390"
    },
    {
      "type": "Feature",
      "properties": {
        "@id": "node/4264711166",
        "amenity": "place_of_worship",
        "name": "Dhahran Hills Mosque",
        "religion": "muslim"
      },
      "geometry": {
        "type": "Point",
        "coordinates": [
          50.1058713,
          26.2876069
        ]
      },
      "id": "node/4264711166"
    },
    {
      "type": "Feature",
      "properties": {
        "@id": "node/4275438190",
        "amenity": "place_of_worship",
        "building": "mosque",
        "name": "مسجد النور",
        "name:en": "Noor Masjid",
        "religion": "muslim"
      },
      "geometry": {
        "type": "Point",
        "coordinates": [
          50.2084496,
          26.286323
        ]
      },
      "id": "node/4275438190"
    },
    {
      "type": "Feature",
      "properties": {
        "@id": "node/4329106191",
        "amenity": "place_of_worship",
        "building": "mosque",
        "denomination": "sunni",
        "name": "مسجد الصحابة",
        "name:en": "Masjid Al Sahaba",
        "religion": "muslim"
      },
      "geometry": {
        "type": "Point",
        "coordinates": [
          50.045092,
          26.71091
        ]
      },
      "id": "node/4329106191"
    },
    {
      "type": "Feature",
      "properties": {
        "@id": "node/4360527589",
        "amenity": "place_of_worship",
        "building": "mosque",
        "name": "جامع الرحمة",
        "religion": "muslim"
      },
      "geometry": {
        "type": "Point",
        "coordinates": [
          50.0532733,
          26.7023379
        ]
      },
      "id": "node/4360527589"
    },
    {
      "type": "Feature",
      "properties": {
        "@id": "node/4379152489",
        "amenity": "place_of_worship",
        "name": "مبني القريشي",
        "name:ar": "مبني القريشي",
        "religion": "muslim"
      },
      "geometry": {
        "type": "Point",
        "coordinates": [
          50.1224399,
          26.4377511
        ]
      },
      "id": "node/4379152489"
    },
    {
      "type": "Feature",
      "properties": {
        "@id": "node/4473504104",
        "amenity": "place_of_worship",
        "name:en": "Mosque",
        "religion": "muslim"
      },
      "geometry": {
        "type": "Point",
        "coordinates": [
          50.1885882,
          26.285478
        ]
      },
      "id": "node/4473504104"
    },
    {
      "type": "Feature",
      "properties": {
        "@id": "node/4540088390",
        "amenity": "place_of_worship",
        "building": "mosque",
        "name": "مسجد سارة بنت راشد السبيعي",
        "religion": "muslim"
      },
      "geometry": {
        "type": "Point",
        "coordinates": [
          50.0575626,
          26.7031593
        ]
      },
      "id": "node/4540088390"
    },
    {
      "type": "Feature",
      "properties": {
        "@id": "node/4925257041",
        "amenity": "place_of_worship",
        "religion": "muslim"
      },
      "geometry": {
        "type": "Point",
        "coordinates": [
          50.0188717,
          26.5481884
        ]
      },
      "id": "node/4925257041"
    },
    {
      "type": "Feature",
      "properties": {
        "@id": "node/5294918321",
        "amenity": "place_of_worship",
        "name:en": "Sheikh Salem Mohammed Bin Laden Mosque",
        "religion": "muslim"
      },
      "geometry": {
        "type": "Point",
        "coordinates": [
          50.219138,
          26.2655989
        ]
      },
      "id": "node/5294918321"
    },
    {
      "type": "Feature",
      "properties": {
        "@id": "node/5312025536",
        "amenity": "place_of_worship",
        "religion": "muslim"
      },
      "geometry": {
        "type": "Point",
        "coordinates": [
          49.9626243,
          26.3524414
        ]
      },
      "id": "node/5312025536"
    },
    {
      "type": "Feature",
      "properties": {
        "@id": "node/5312025635",
        "amenity": "place_of_worship",
        "religion": "muslim"
      },
      "geometry": {
        "type": "Point",
        "coordinates": [
          50.0083072,
          26.3319902
        ]
      },
      "id": "node/5312025635"
    },
    {
      "type": "Feature",
      "properties": {
        "@id": "node/5312025636",
        "amenity": "place_of_worship",
        "religion": "muslim"
      },
      "geometry": {
        "type": "Point",
        "coordinates": [
          50.0043181,
          26.3371278
        ]
      },
      "id": "node/5312025636"
    },
    {
      "type": "Feature",
      "properties": {
        "@id": "node/5312025921",
        "amenity": "place_of_worship",
        "religion": "muslim"
      },
      "geometry": {
        "type": "Point",
        "coordinates": [
          50.0259891,
          26.4020577
        ]
      },
      "id": "node/5312025921"
    },
    {
      "type": "Feature",
      "properties": {
        "@id": "node/5312025922",
        "amenity": "place_of_worship",
        "religion": "muslim"
      },
      "geometry": {
        "type": "Point",
        "coordinates": [
          50.004474,
          26.4104018
        ]
      },
      "id": "node/5312025922"
    },
    {
      "type": "Feature",
      "properties": {
        "@id": "node/5312093230",
        "amenity": "place_of_worship",
        "religion": "muslim"
      },
      "geometry": {
        "type": "Point",
        "coordinates": [
          50.0260592,
          26.3640114
        ]
      },
      "id": "node/5312093230"
    },
    {
      "type": "Feature",
      "properties": {
        "@id": "node/5312093684",
        "amenity": "place_of_worship",
        "religion": "muslim"
      },
      "geometry": {
        "type": "Point",
        "coordinates": [
          50.0457661,
          26.3913866
        ]
      },
      "id": "node/5312093684"
    },
    {
      "type": "Feature",
      "properties": {
        "@id": "node/5312093713",
        "amenity": "place_of_worship",
        "religion": "muslim"
      },
      "geometry": {
        "type": "Point",
        "coordinates": [
          50.042234,
          26.384039
        ]
      },
      "id": "node/5312093713"
    },
    {
      "type": "Feature",
      "properties": {
        "@id": "node/5312093716",
        "amenity": "place_of_worship",
        "religion": "muslim"
      },
      "geometry": {
        "type": "Point",
        "coordinates": [
          50.0291916,
          26.3855639
        ]
      },
      "id": "node/5312093716"
    },
    {
      "type": "Feature",
      "properties": {
        "@id": "node/5312093722",
        "amenity": "place_of_worship",
        "religion": "muslim"
      },
      "geometry": {
        "type": "Point",
        "coordinates": [
          50.0476317,
          26.3796286
        ]
      },
      "id": "node/5312093722"
    },
    {
      "type": "Feature",
      "properties": {
        "@id": "node/5312093723",
        "amenity": "place_of_worship",
        "religion": "muslim"
      },
      "geometry": {
        "type": "Point",
        "coordinates": [
          50.040525,
          26.3757603
        ]
      },
      "id": "node/5312093723"
    },
    {
      "type": "Feature",
      "properties": {
        "@id": "node/5312093729",
        "amenity": "place_of_worship",
        "religion": "muslim"
      },
      "geometry": {
        "type": "Point",
        "coordinates": [
          50.0348481,
          26.3759252
        ]
      },
      "id": "node/5312093729"
    },
    {
      "type": "Feature",
      "properties": {
        "@id": "node/5312093746",
        "amenity": "place_of_worship",
        "religion": "muslim"
      },
      "geometry": {
        "type": "Point",
        "coordinates": [
          50.0530396,
          26.3716129
        ]
      },
      "id": "node/5312093746"
    },
    {
      "type": "Feature",
      "properties": {
        "@id": "node/5312093751",
        "amenity": "place_of_worship",
        "religion": "muslim"
      },
      "geometry": {
        "type": "Point",
        "coordinates": [
          50.0469663,
          26.3661334
        ]
      },
      "id": "node/5312093751"
    },
    {
      "type": "Feature",
      "properties": {
        "@id": "node/5312093757",
        "amenity": "place_of_worship",
        "religion": "muslim"
      },
      "geometry": {
        "type": "Point",
        "coordinates": [
          50.0359806,
          26.371486
        ]
      },
      "id": "node/5312093757"
    },
    {
      "type": "Feature",
      "properties": {
        "@id": "node/5312093783",
        "amenity": "place_of_worship",
        "religion": "muslim"
      },
      "geometry": {
        "type": "Point",
        "coordinates": [
          50.0308167,
          26.380951
        ]
      },
      "id": "node/5312093783"
    },
    {
      "type": "Feature",
      "properties": {
        "@id": "node/5312093795",
        "amenity": "place_of_worship",
        "religion": "muslim"
      },
      "geometry": {
        "type": "Point",
        "coordinates": [
          50.0307789,
          26.3675821
        ]
      },
      "id": "node/5312093795"
    },
    {
      "type": "Feature",
      "properties": {
        "@id": "node/5312093828",
        "amenity": "place_of_worship",
        "religion": "muslim"
      },
      "geometry": {
        "type": "Point",
        "coordinates": [
          50.0329611,
          26.3639766
        ]
      },
      "id": "node/5312093828"
    },
    {
      "type": "Feature",
      "properties": {
        "@id": "node/5312165686",
        "amenity": "place_of_worship",
        "religion": "muslim"
      },
      "geometry": {
        "type": "Point",
        "coordinates": [
          50.0058198,
          26.3127431
        ]
      },
      "id": "node/5312165686"
    },
    {
      "type": "Feature",
      "properties": {
        "@id": "node/5312165687",
        "amenity": "place_of_worship",
        "religion": "muslim"
      },
      "geometry": {
        "type": "Point",
        "coordinates": [
          50.008591,
          26.3144929
        ]
      },
      "id": "node/5312165687"
    },
    {
      "type": "Feature",
      "properties": {
        "@id": "node/5312165801",
        "amenity": "place_of_worship",
        "religion": "muslim"
      },
      "geometry": {
        "type": "Point",
        "coordinates": [
          49.997173,
          26.3082071
        ]
      },
      "id": "node/5312165801"
    },
    {
      "type": "Feature",
      "properties": {
        "@id": "node/5312165802",
        "amenity": "place_of_worship",
        "religion": "muslim"
      },
      "geometry": {
        "type": "Point",
        "coordinates": [
          49.9944454,
          26.3064807
        ]
      },
      "id": "node/5312165802"
    },
    {
      "type": "Feature",
      "properties": {
        "@id": "node/5312165810",
        "amenity": "place_of_worship",
        "religion": "muslim"
      },
      "geometry": {
        "type": "Point",
        "coordinates": [
          50.0019573,
          26.3082071
        ]
      },
      "id": "node/5312165810"
    },
    {
      "type": "Feature",
      "properties": {
        "@id": "node/5312166159",
        "amenity": "place_of_worship",
        "religion": "muslim"
      },
      "geometry": {
        "type": "Point",
        "coordinates": [
          50.0238606,
          26.2994623
        ]
      },
      "id": "node/5312166159"
    },
    {
      "type": "Feature",
      "properties": {
        "@id": "node/5312166160",
        "amenity": "place_of_worship",
        "religion": "muslim"
      },
      "geometry": {
        "type": "Point",
        "coordinates": [
          50.0272821,
          26.3008294
        ]
      },
      "id": "node/5312166160"
    },
    {
      "type": "Feature",
      "properties": {
        "@id": "node/5312166161",
        "amenity": "place_of_worship",
        "religion": "muslim"
      },
      "geometry": {
        "type": "Point",
        "coordinates": [
          50.0221006,
          26.3004077
        ]
      },
      "id": "node/5312166161"
    },
    {
      "type": "Feature",
      "properties": {
        "@id": "node/5312166556",
        "amenity": "place_of_worship",
        "religion": "muslim"
      },
      "geometry": {
        "type": "Point",
        "coordinates": [
          50.0189067,
          26.292729
        ]
      },
      "id": "node/5312166556"
    },
    {
      "type": "Feature",
      "properties": {
        "@id": "node/5312166557",
        "amenity": "place_of_worship",
        "religion": "muslim"
      },
      "geometry": {
        "type": "Point",
        "coordinates": [
          50.0161756,
          26.2893894
        ]
      },
      "id": "node/5312166557"
    },
    {
      "type": "Feature",
      "properties": {
        "@id": "node/5312449928",
        "amenity": "place_of_worship",
        "religion": "muslim"
      },
      "geometry": {
        "type": "Point",
        "coordinates": [
          50.1105769,
          26.2399624
        ]
      },
      "id": "node/5312449928"
    },
    {
      "type": "Feature",
      "properties": {
        "@id": "node/5312450057",
        "amenity": "place_of_worship",
        "religion": "muslim"
      },
      "geometry": {
        "type": "Point",
        "coordinates": [
          50.1465261,
          26.2919429
        ]
      },
      "id": "node/5312450057"
    },
    {
      "type": "Feature",
      "properties": {
        "@id": "node/5312450085",
        "amenity": "place_of_worship",
        "religion": "muslim"
      },
      "geometry": {
        "type": "Point",
        "coordinates": [
          50.1375791,
          26.2856352
        ]
      },
      "id": "node/5312450085"
    },
    {
      "type": "Feature",
      "properties": {
        "@id": "node/5312821143",
        "amenity": "place_of_worship",
        "religion": "muslim"
      },
      "geometry": {
        "type": "Point",
        "coordinates": [
          50.038063,
          26.3465562
        ]
      },
      "id": "node/5312821143"
    },
    {
      "type": "Feature",
      "properties": {
        "@id": "node/5312821176",
        "amenity": "place_of_worship",
        "religion": "muslim"
      },
      "geometry": {
        "type": "Point",
        "coordinates": [
          50.0632924,
          26.3683717
        ]
      },
      "id": "node/5312821176"
    },
    {
      "type": "Feature",
      "properties": {
        "@id": "node/5312821294",
        "amenity": "place_of_worship",
        "religion": "muslim"
      },
      "geometry": {
        "type": "Point",
        "coordinates": [
          50.0523647,
          26.3675123
        ]
      },
      "id": "node/5312821294"
    },
    {
      "type": "Feature",
      "properties": {
        "@id": "node/5312821418",
        "amenity": "place_of_worship",
        "religion": "muslim"
      },
      "geometry": {
        "type": "Point",
        "coordinates": [
          50.1103699,
          26.3511508
        ]
      },
      "id": "node/5312821418"
    },
    {
      "type": "Feature",
      "properties": {
        "@id": "node/5312821427",
        "amenity": "place_of_worship",
        "religion": "muslim"
      },
      "geometry": {
        "type": "Point",
        "coordinates": [
          50.1125872,
          26.3483373
        ]
      },
      "id": "node/5312821427"
    },
    {
      "type": "Feature",
      "properties": {
        "@id": "node/5312821439",
        "amenity": "place_of_worship",
        "religion": "muslim"
      },
      "geometry": {
        "type": "Point",
        "coordinates": [
          50.1084321,
          26.3549325
        ]
      },
      "id": "node/5312821439"
    },
    {
      "type": "Feature",
      "properties": {
        "@id": "node/5334458723",
        "amenity": "place_of_worship",
        "religion": "muslim"
      },
      "geometry": {
        "type": "Point",
        "coordinates": [
          50.1199702,
          26.4626165
        ]
      },
      "id": "node/5334458723"
    },
    {
      "type": "Feature",
      "properties": {
        "@id": "node/5357725121",
        "amenity": "place_of_worship",
        "name": "مسجد القدس",
        "name:en": "Masjed alquds",
        "religion": "muslim"
      },
      "geometry": {
        "type": "Point",
        "coordinates": [
          50.0725005,
          26.4545563
        ]
      },
      "id": "node/5357725121"
    },
    {
      "type": "Feature",
      "properties": {
        "@id": "node/5372465324",
        "addr:street": "شارع حفص النخعي",
        "amenity": "place_of_worship",
        "name": "مسجدالشيخ محمدسليمان الشيحة",
        "religion": "muslim"
      },
      "geometry": {
        "type": "Point",
        "coordinates": [
          50.0134643,
          26.4243213
        ]
      },
      "id": "node/5372465324"
    },
    {
      "type": "Feature",
      "properties": {
        "@id": "node/5372491521",
        "amenity": "place_of_worship",
        "name": "جامع الشيخ العسكر",
        "religion": "muslim"
      },
      "geometry": {
        "type": "Point",
        "coordinates": [
          50.0147057,
          26.4226146
        ]
      },
      "id": "node/5372491521"
    },
    {
      "type": "Feature",
      "properties": {
        "@id": "node/5976673730",
        "amenity": "place_of_worship",
        "name": "Al Moaibed Mosque",
        "religion": "muslim"
      },
      "geometry": {
        "type": "Point",
        "coordinates": [
          50.205084,
          26.3586145
        ]
      },
      "id": "node/5976673730"
    },
    {
      "type": "Feature",
      "properties": {
        "@id": "node/6308229073",
        "amenity": "place_of_worship",
        "name": "جامع عمر ابن الخطاب رضى الله عنه",
        "religion": "muslim"
      },
      "geometry": {
        "type": "Point",
        "coordinates": [
          50.2008049,
          26.357779
        ]
      },
      "id": "node/6308229073"
    },
    {
      "type": "Feature",
      "properties": {
        "@id": "node/6485336813",
        "amenity": "place_of_worship",
        "religion": "muslim"
      },
      "geometry": {
        "type": "Point",
        "coordinates": [
          49.9931866,
          26.1284277
        ]
      },
      "id": "node/6485336813"
    },
    {
      "type": "Feature",
      "properties": {
        "@id": "node/6485336814",
        "amenity": "place_of_worship",
        "religion": "muslim"
      },
      "geometry": {
        "type": "Point",
        "coordinates": [
          49.9980793,
          26.1364687
        ]
      },
      "id": "node/6485336814"
    },
    {
      "type": "Feature",
      "properties": {
        "@id": "node/6485336818",
        "amenity": "place_of_worship",
        "religion": "muslim"
      },
      "geometry": {
        "type": "Point",
        "coordinates": [
          50.0012325,
          26.1403718
        ]
      },
      "id": "node/6485336818"
    },
    {
      "type": "Feature",
      "properties": {
        "@id": "node/6485336819",
        "amenity": "place_of_worship",
        "religion": "muslim"
      },
      "geometry": {
        "type": "Point",
        "coordinates": [
          50.0014176,
          26.1406126
        ]
      },
      "id": "node/6485336819"
    },
    {
      "type": "Feature",
      "properties": {
        "@id": "node/6485336822",
        "amenity": "place_of_worship",
        "religion": "muslim"
      },
      "geometry": {
        "type": "Point",
        "coordinates": [
          50.0051539,
          26.1462203
        ]
      },
      "id": "node/6485336822"
    },
    {
      "type": "Feature",
      "properties": {
        "@id": "node/6485346751",
        "amenity": "place_of_worship",
        "religion": "muslim"
      },
      "geometry": {
        "type": "Point",
        "coordinates": [
          50.0631663,
          26.1779483
        ]
      },
      "id": "node/6485346751"
    },
    {
      "type": "Feature",
      "properties": {
        "@id": "node/6485346756",
        "amenity": "place_of_worship",
        "religion": "muslim"
      },
      "geometry": {
        "type": "Point",
        "coordinates": [
          50.0756033,
          26.1440252
        ]
      },
      "id": "node/6485346756"
    },
    {
      "type": "Feature",
      "properties": {
        "@id": "node/6485430738",
        "amenity": "place_of_worship",
        "religion": "muslim"
      },
      "geometry": {
        "type": "Point",
        "coordinates": [
          50.2214639,
          26.2853023
        ]
      },
      "id": "node/6485430738"
    },
    {
      "type": "Feature",
      "properties": {
        "@id": "node/6485430741",
        "amenity": "place_of_worship",
        "religion": "muslim"
      },
      "geometry": {
        "type": "Point",
        "coordinates": [
          50.221383,
          26.2882394
        ]
      },
      "id": "node/6485430741"
    },
    {
      "type": "Feature",
      "properties": {
        "@id": "node/6485430743",
        "amenity": "place_of_worship",
        "religion": "muslim"
      },
      "geometry": {
        "type": "Point",
        "coordinates": [
          50.2222395,
          26.2923296
        ]
      },
      "id": "node/6485430743"
    },
    {
      "type": "Feature",
      "properties": {
        "@id": "node/6485430750",
        "amenity": "place_of_worship",
        "religion": "muslim"
      },
      "geometry": {
        "type": "Point",
        "coordinates": [
          50.2228049,
          26.2957335
        ]
      },
      "id": "node/6485430750"
    },
    {
      "type": "Feature",
      "properties": {
        "@id": "node/7216668085",
        "amenity": "place_of_worship",
        "name:en": "Esam Bulbul Mosque",
        "religion": "muslim"
      },
      "geometry": {
        "type": "Point",
        "coordinates": [
          50.080357,
          26.4619175
        ]
      },
      "id": "node/7216668085"
    },
    {
      "type": "Feature",
      "properties": {
        "@id": "node/7425438566",
        "amenity": "place_of_worship",
        "name": "مسجد جسر الملك فهد",
        "name:ar": "مسجد جسر الملك فهد",
        "name:en": "Saudi Causeway Mosque",
        "religion": "muslim"
      },
      "geometry": {
        "type": "Point",
        "coordinates": [
          50.3192255,
          26.1864395
        ]
      },
      "id": "node/7425438566"
    },
    {
      "type": "Feature",
      "properties": {
        "@id": "node/7746621288",
        "amenity": "place_of_worship",
        "name": "El-Kheriji Mosque"
      },
      "geometry": {
        "type": "Point",
        "coordinates": [
          50.2160748,
          26.3117963
        ]
      },
      "id": "node/7746621288"
    },
    {
      "type": "Feature",
      "properties": {
        "@id": "node/7903108647",
        "amenity": "place_of_worship",
        "religion": "muslim"
      },
      "geometry": {
        "type": "Point",
        "coordinates": [
          50.0081003,
          26.4476618
        ]
      },
      "id": "node/7903108647"
    },
    {
      "type": "Feature",
      "properties": {
        "@id": "node/7903115341",
        "amenity": "place_of_worship",
        "religion": "muslim"
      },
      "geometry": {
        "type": "Point",
        "coordinates": [
          49.9841468,
          26.4190388
        ]
      },
      "id": "node/7903115341"
    },
    {
      "type": "Feature",
      "properties": {
        "@id": "node/7903116285",
        "amenity": "place_of_worship",
        "religion": "muslim"
      },
      "geometry": {
        "type": "Point",
        "coordinates": [
          50.0136072,
          26.4265258
        ]
      },
      "id": "node/7903116285"
    },
    {
      "type": "Feature",
      "properties": {
        "@id": "node/7903116339",
        "amenity": "place_of_worship",
        "religion": "muslim"
      },
      "geometry": {
        "type": "Point",
        "coordinates": [
          50.0316736,
          26.4270892
        ]
      },
      "id": "node/7903116339"
    },
    {
      "type": "Feature",
      "properties": {
        "@id": "node/7903116409",
        "amenity": "place_of_worship",
        "religion": "muslim"
      },
      "geometry": {
        "type": "Point",
        "coordinates": [
          50.0177164,
          26.4327442
        ]
      },
      "id": "node/7903116409"
    },
    {
      "type": "Feature",
      "properties": {
        "@id": "node/7903116410",
        "amenity": "place_of_worship",
        "religion": "muslim"
      },
      "geometry": {
        "type": "Point",
        "coordinates": [
          50.0212191,
          26.4353063
        ]
      },
      "id": "node/7903116410"
    },
    {
      "type": "Feature",
      "properties": {
        "@id": "node/7903116471",
        "amenity": "place_of_worship",
        "religion": "muslim"
      },
      "geometry": {
        "type": "Point",
        "coordinates": [
          50.0407952,
          26.4328676
        ]
      },
      "id": "node/7903116471"
    },
    {
      "type": "Feature",
      "properties": {
        "@id": "node/7903116472",
        "amenity": "place_of_worship",
        "religion": "muslim"
      },
      "geometry": {
        "type": "Point",
        "coordinates": [
          50.0372863,
          26.4354649
        ]
      },
      "id": "node/7903116472"
    },
    {
      "type": "Feature",
      "properties": {
        "@id": "node/7903116606",
        "amenity": "place_of_worship",
        "religion": "muslim"
      },
      "geometry": {
        "type": "Point",
        "coordinates": [
          50.0189358,
          26.4292263
        ]
      },
      "id": "node/7903116606"
    },
    {
      "type": "Feature",
      "properties": {
        "@id": "node/7903573518",
        "amenity": "place_of_worship",
        "religion": "muslim"
      },
      "geometry": {
        "type": "Point",
        "coordinates": [
          50.0236707,
          26.5236714
        ]
      },
      "id": "node/7903573518"
    },
    {
      "type": "Feature",
      "properties": {
        "@id": "node/7903649955",
        "amenity": "place_of_worship",
        "religion": "muslim"
      },
      "geometry": {
        "type": "Point",
        "coordinates": [
          50.0425449,
          26.4936254
        ]
      },
      "id": "node/7903649955"
    },
    {
      "type": "Feature",
      "properties": {
        "@id": "node/7903650591",
        "amenity": "place_of_worship",
        "religion": "muslim"
      },
      "geometry": {
        "type": "Point",
        "coordinates": [
          50.0903667,
          26.4513986
        ]
      },
      "id": "node/7903650591"
    },
    {
      "type": "Feature",
      "properties": {
        "@id": "node/7903650592",
        "amenity": "place_of_worship",
        "religion": "muslim"
      },
      "geometry": {
        "type": "Point",
        "coordinates": [
          50.0891276,
          26.450971
        ]
      },
      "id": "node/7903650592"
    },
    {
      "type": "Feature",
      "properties": {
        "@id": "node/7903650614",
        "amenity": "place_of_worship",
        "religion": "muslim"
      },
      "geometry": {
        "type": "Point",
        "coordinates": [
          50.0910013,
          26.4546978
        ]
      },
      "id": "node/7903650614"
    },
    {
      "type": "Feature",
      "properties": {
        "@id": "node/7903650652",
        "amenity": "place_of_worship",
        "religion": "muslim"
      },
      "geometry": {
        "type": "Point",
        "coordinates": [
          50.0907845,
          26.4760793
        ]
      },
      "id": "node/7903650652"
    },
    {
      "type": "Feature",
      "properties": {
        "@id": "node/7903650676",
        "amenity": "place_of_worship",
        "religion": "muslim"
      },
      "geometry": {
        "type": "Point",
        "coordinates": [
          50.0910471,
          26.4704405
        ]
      },
      "id": "node/7903650676"
    },
    {
      "type": "Feature",
      "properties": {
        "@id": "node/7903650677",
        "amenity": "place_of_worship",
        "religion": "muslim"
      },
      "geometry": {
        "type": "Point",
        "coordinates": [
          50.0884642,
          26.4727997
        ]
      },
      "id": "node/7903650677"
    },
    {
      "type": "Feature",
      "properties": {
        "@id": "node/7903685330",
        "amenity": "place_of_worship",
        "religion": "muslim"
      },
      "geometry": {
        "type": "Point",
        "coordinates": [
          50.0863514,
          26.4651938
        ]
      },
      "id": "node/7903685330"
    },
    {
      "type": "Feature",
      "properties": {
        "@id": "node/7903685335",
        "amenity": "place_of_worship",
        "religion": "muslim"
      },
      "geometry": {
        "type": "Point",
        "coordinates": [
          50.0912229,
          26.461082
        ]
      },
      "id": "node/7903685335"
    },
    {
      "type": "Feature",
      "properties": {
        "@id": "node/7903685336",
        "amenity": "place_of_worship",
        "religion": "muslim"
      },
      "geometry": {
        "type": "Point",
        "coordinates": [
          50.0934763,
          26.4620373
        ]
      },
      "id": "node/7903685336"
    },
    {
      "type": "Feature",
      "properties": {
        "@id": "node/7903685339",
        "amenity": "place_of_worship",
        "religion": "muslim"
      },
      "geometry": {
        "type": "Point",
        "coordinates": [
          50.086336,
          26.4619529
        ]
      },
      "id": "node/7903685339"
    },
    {
      "type": "Feature",
      "properties": {
        "@id": "node/7903710102",
        "amenity": "place_of_worship",
        "religion": "muslim"
      },
      "geometry": {
        "type": "Point",
        "coordinates": [
          50.093723,
          26.4647158
        ]
      },
      "id": "node/7903710102"
    },
    {
      "type": "Feature",
      "properties": {
        "@id": "node/7903710103",
        "amenity": "place_of_worship",
        "religion": "muslim"
      },
      "geometry": {
        "type": "Point",
        "coordinates": [
          50.0934322,
          26.4678885
        ]
      },
      "id": "node/7903710103"
    },
    {
      "type": "Feature",
      "properties": {
        "@id": "node/7903710238",
        "amenity": "place_of_worship",
        "religion": "muslim"
      },
      "geometry": {
        "type": "Point",
        "coordinates": [
          50.0941733,
          26.4512605
        ]
      },
      "id": "node/7903710238"
    },
    {
      "type": "Feature",
      "properties": {
        "@id": "node/7903710803",
        "amenity": "place_of_worship",
        "religion": "muslim"
      },
      "geometry": {
        "type": "Point",
        "coordinates": [
          49.9670275,
          26.5236836
        ]
      },
      "id": "node/7903710803"
    },
    {
      "type": "Feature",
      "properties": {
        "@id": "node/7904528852",
        "amenity": "place_of_worship",
        "religion": "muslim"
      },
      "geometry": {
        "type": "Point",
        "coordinates": [
          49.9573433,
          26.3385398
        ]
      },
      "id": "node/7904528852"
    },
    {
      "type": "Feature",
      "properties": {
        "@id": "node/7936838390",
        "amenity": "place_of_worship",
        "religion": "muslim"
      },
      "geometry": {
        "type": "Point",
        "coordinates": [
          50.1433622,
          26.3968671
        ]
      },
      "id": "node/7936838390"
    },
    {
      "type": "Feature",
      "properties": {
        "@id": "node/8203028544",
        "amenity": "place_of_worship",
        "name": "Masjid Al Farooq",
        "name:ar": "مسجد الفاروق",
        "religion": "muslim"
      },
      "geometry": {
        "type": "Point",
        "coordinates": [
          50.2144283,
          26.287909
        ]
      },
      "id": "node/8203028544"
    }
  ]
}
