{
  "type": "FeatureCollection",
  "generator": "overpass-ide",
  "copyright": "The data included in this document is from www.openstreetmap.org. The data is made available under ODbL.",
  "timestamp": "2020-11-19T11:54:03Z",
  "features": [
    {
      "type": "Feature",
      "properties": {
        "@id": "relation/8857089",
        "colour": "#0000ff",
        "name": "1 Blue Line",
        "network": "Riyadh Transit Network",
        "ref": "1",
        "route": "subway",
        "type": "route",
        "@timestamp": "2020-03-21T16:44:10Z",
        "@version": "13",
        "@changeset": "82464149",
        "@user": "Faleh Aldham",
        "@uid": "2868124",
        "@tainted": true
      },
      "geometry": {
        "type": "LineString",
        "coordinates": [
          [
            46.7154501,
            24.6285369
          ],
          [
            46.7154501,
            24.6285369
          ]
        ]
      },
      "id": "relation/8857089"
    },
    {
      "type": "Feature",
      "properties": {
        "@id": "relation/8857387",
        "colour": "#ffa500",
        "name": "3 Orange Line",
        "public_transport:version": "2",
        "route": "subway",
        "type": "route",
        "@timestamp": "2020-10-13T12:22:14Z",
        "@version": "11",
        "@changeset": "92417096",
        "@user": "Körönavirüs",
        "@uid": "11980601",
        "@tainted": true
      },
      "geometry": {
        "type": "LineString",
        "coordinates": [
          [
            46.7154501,
            24.6285369
          ],
          [
            46.7154501,
            24.6285369
          ]
        ]
      },
      "id": "relation/8857387"
    },
    {
      "type": "Feature",
      "properties": {
        "@id": "way/40589082",
        "building": "yes",
        "historic": "archaeological_site",
        "name": "قصر المصمك",
        "@timestamp": "2020-05-05T17:43:58Z",
        "@version": "3",
        "@changeset": "84711193",
        "@user": "أبـوعلي",
        "@uid": "10340489"
      },
      "geometry": {
        "type": "Polygon",
        "coordinates": [
          [
            [
              46.713034,
              24.6313068
            ],
            [
              46.7129982,
              24.6313118
            ],
            [
              46.7129872,
              24.6312589
            ],
            [
              46.713034,
              24.6312514
            ],
            [
              46.7132076,
              24.6309241
            ],
            [
              46.7131882,
              24.6308914
            ],
            [
              46.7132323,
              24.6308737
            ],
            [
              46.7132626,
              24.6309115
            ],
            [
              46.713706,
              24.6310449
            ],
            [
              46.7137474,
              24.6310298
            ],
            [
              46.7137694,
              24.6310776
            ],
            [
              46.7137281,
              24.6311003
            ],
            [
              46.7136317,
              24.6314099
            ],
            [
              46.7136565,
              24.6314528
            ],
            [
              46.7135903,
              24.6314754
            ],
            [
              46.7135683,
              24.6314377
            ],
            [
              46.713034,
              24.6313068
            ]
          ]
        ]
      },
      "id": "way/40589082"
    },
    {
      "type": "Feature",
      "properties": {
        "@id": "way/40589083",
        "amenity": "place_of_worship",
        "building": "yes",
        "denomination": "sunni",
        "name": "جامع الإمام تركي بن عبد الله",
        "name:en": "Imam turki Bin Abdullah Grand Mosque",
        "religion": "muslim",
        "@timestamp": "2019-08-15T18:51:56Z",
        "@version": "7",
        "@changeset": "73388849",
        "@user": "WASO",
        "@uid": "348406"
      },
      "geometry": {
        "type": "Polygon",
        "coordinates": [
          [
            [
              46.7098996,
              24.630992
            ],
            [
              46.7103842,
              24.6300815
            ],
            [
              46.710994,
              24.6303718
            ],
            [
              46.7114244,
              24.6305768
            ],
            [
              46.7111205,
              24.6311043
            ],
            [
              46.7109545,
              24.6314402
            ],
            [
              46.7098996,
              24.630992
            ]
          ]
        ]
      },
      "id": "way/40589083"
    },
    {
      "type": "Feature",
      "properties": {
        "@id": "way/43511094",
        "building": "yes",
        "@timestamp": "2009-10-31T18:49:59Z",
        "@version": "1",
        "@changeset": "3000303",
        "@user": "t_woelk",
        "@uid": "52754"
      },
      "geometry": {
        "type": "Polygon",
        "coordinates": [
          [
            [
              46.7123491,
              24.6306869
            ],
            [
              46.7124228,
              24.6305589
            ],
            [
              46.711897,
              24.6303085
            ],
            [
              46.7119427,
              24.6302292
            ],
            [
              46.7120774,
              24.6302204
            ],
            [
              46.712819,
              24.6305065
            ],
            [
              46.7126561,
              24.6308331
            ],
            [
              46.7123491,
              24.6306869
            ]
          ]
        ]
      },
      "id": "way/43511094"
    },
    {
      "type": "Feature",
      "properties": {
        "@id": "way/43511259",
        "building": "yes",
        "@timestamp": "2014-08-28T14:42:07Z",
        "@version": "2",
        "@changeset": "25075287",
        "@user": "keepright! ler",
        "@uid": "1731253"
      },
      "geometry": {
        "type": "Polygon",
        "coordinates": [
          [
            [
              46.7124049,
              24.6311579
            ],
            [
              46.7124241,
              24.6311007
            ],
            [
              46.712246,
              24.6310347
            ],
            [
              46.7121763,
              24.6311584
            ],
            [
              46.7119811,
              24.6315056
            ],
            [
              46.7126882,
              24.631689
            ],
            [
              46.7127319,
              24.631757
            ],
            [
              46.7118897,
              24.6315364
            ],
            [
              46.7119308,
              24.6314901
            ],
            [
              46.7122635,
              24.6309126
            ],
            [
              46.7125357,
              24.6310421
            ],
            [
              46.7124579,
              24.63118
            ],
            [
              46.7124049,
              24.6311579
            ]
          ]
        ]
      },
      "id": "way/43511259"
    },
    {
      "type": "Feature",
      "properties": {
        "@id": "way/43511290",
        "building": "yes",
        "@timestamp": "2009-10-31T18:50:26Z",
        "@version": "1",
        "@changeset": "3000303",
        "@user": "t_woelk",
        "@uid": "52754"
      },
      "geometry": {
        "type": "Polygon",
        "coordinates": [
          [
            [
              46.7105919,
              24.629721
            ],
            [
              46.7106088,
              24.6289748
            ],
            [
              46.7115815,
              24.6290056
            ],
            [
              46.711596,
              24.6294722
            ],
            [
              46.7117259,
              24.630035
            ],
            [
              46.7116237,
              24.6302123
            ],
            [
              46.7105919,
              24.629721
            ]
          ]
        ]
      },
      "id": "way/43511290"
    },
    {
      "type": "Feature",
      "properties": {
        "@id": "way/43511545",
        "area": "yes",
        "highway": "pedestrian",
        "loc_name": "Chop chop square",
        "name": "ساحة الصفاة",
        "name:en": "Deera Square",
        "wikidata": "Q3704686",
        "@timestamp": "2020-04-16T00:39:17Z",
        "@version": "6",
        "@changeset": "83617115",
        "@user": "Abdullah Abdulrahman",
        "@uid": "10478308"
      },
      "geometry": {
        "type": "Polygon",
        "coordinates": [
          [
            [
              46.7103842,
              24.6300815
            ],
            [
              46.7105919,
              24.629721
            ],
            [
              46.7116237,
              24.6302123
            ],
            [
              46.7117259,
              24.630035
            ],
            [
              46.7119839,
              24.6301578
            ],
            [
              46.7119427,
              24.6302292
            ],
            [
              46.711897,
              24.6303085
            ],
            [
              46.7124228,
              24.6305589
            ],
            [
              46.7123491,
              24.6306869
            ],
            [
              46.7126561,
              24.6308331
            ],
            [
              46.7125357,
              24.6310421
            ],
            [
              46.7122635,
              24.6309126
            ],
            [
              46.7119308,
              24.6314901
            ],
            [
              46.7111205,
              24.6311043
            ],
            [
              46.7114244,
              24.6305768
            ],
            [
              46.710994,
              24.6303718
            ],
            [
              46.7103842,
              24.6300815
            ]
          ]
        ]
      },
      "id": "way/43511545"
    },
    {
      "type": "Feature",
      "properties": {
        "@id": "way/43511580",
        "area": "yes",
        "highway": "pedestrian",
        "@timestamp": "2009-10-31T18:51:06Z",
        "@version": "1",
        "@changeset": "3000303",
        "@user": "t_woelk",
        "@uid": "52754"
      },
      "geometry": {
        "type": "Polygon",
        "coordinates": [
          [
            [
              46.7109573,
              24.6305376
            ],
            [
              46.7111475,
              24.6306255
            ],
            [
              46.7108176,
              24.6312152
            ],
            [
              46.7106274,
              24.6311273
            ],
            [
              46.7109573,
              24.6305376
            ]
          ]
        ]
      },
      "id": "way/43511580"
    },
    {
      "type": "Feature",
      "properties": {
        "@id": "way/43511595",
        "amenity": "parking",
        "name": "سوق الثميري",
        "name:ar": "سوق الثميري",
        "name:en": "Souq althmere",
        "operator": "Galleries",
        "@timestamp": "2016-12-01T11:21:53Z",
        "@version": "4",
        "@changeset": "44083840",
        "@user": "Zeyad Saad",
        "@uid": "3979816"
      },
      "geometry": {
        "type": "Polygon",
        "coordinates": [
          [
            [
              46.7124193,
              24.6312547
            ],
            [
              46.7133197,
              24.6314924
            ],
            [
              46.7139458,
              24.6316641
            ],
            [
              46.7138398,
              24.6319854
            ],
            [
              46.7127454,
              24.6317124
            ],
            [
              46.7128082,
              24.6315106
            ],
            [
              46.7127484,
              24.6314952
            ],
            [
              46.7126882,
              24.631689
            ],
            [
              46.7119811,
              24.6315056
            ],
            [
              46.7121763,
              24.6311584
            ],
            [
              46.7124193,
              24.6312547
            ]
          ]
        ]
      },
      "id": "way/43511595"
    },
    {
      "type": "Feature",
      "properties": {
        "@id": "way/125119766",
        "landuse": "retail",
        "name": "Clock Tower Souq",
        "@timestamp": "2011-08-08T06:36:20Z",
        "@version": "1",
        "@changeset": "8954065",
        "@user": "Dugoon",
        "@uid": "123649",
        "@tainted": true
      },
      "geometry": {
        "type": "Polygon",
        "coordinates": [
          [
            [
              46.7115815,
              24.6290056
            ],
            [
              46.7116467,
              24.6287806
            ],
            [
              46.713572,
              24.6284402
            ],
            [
              46.7138188,
              24.6290254
            ],
            [
              46.7140012,
              24.6294448
            ],
            [
              46.7148702,
              24.6297081
            ],
            [
              46.7151872,
              24.6312578
            ],
            [
              46.7141573,
              24.631014
            ],
            [
              46.7141251,
              24.6311505
            ],
            [
              46.7138295,
              24.6310052
            ],
            [
              46.7132131,
              24.6308189
            ],
            [
              46.712819,
              24.6305065
            ],
            [
              46.7120774,
              24.6302204
            ],
            [
              46.7119427,
              24.6302292
            ],
            [
              46.7119839,
              24.6301578
            ],
            [
              46.7117259,
              24.630035
            ],
            [
              46.711596,
              24.6294722
            ],
            [
              46.7115815,
              24.6290056
            ]
          ]
        ]
      },
      "id": "way/125119766"
    },
    {
      "type": "Feature",
      "properties": {
        "@id": "way/300654157",
        "building": "roof",
        "@timestamp": "2014-08-28T14:42:05Z",
        "@version": "1",
        "@changeset": "25075287",
        "@user": "keepright! ler",
        "@uid": "1731253"
      },
      "geometry": {
        "type": "Polygon",
        "coordinates": [
          [
            [
              46.7127319,
              24.631757
            ],
            [
              46.7126882,
              24.631689
            ],
            [
              46.7127484,
              24.6314952
            ],
            [
              46.7128082,
              24.6315106
            ],
            [
              46.7127454,
              24.6317124
            ],
            [
              46.7127319,
              24.631757
            ]
          ]
        ]
      },
      "id": "way/300654157"
    },
    {
      "type": "Feature",
      "properties": {
        "@id": "way/300654158",
        "building": "yes",
        "@timestamp": "2014-08-28T14:42:05Z",
        "@version": "1",
        "@changeset": "25075287",
        "@user": "keepright! ler",
        "@uid": "1731253"
      },
      "geometry": {
        "type": "Polygon",
        "coordinates": [
          [
            [
              46.7142314,
              24.6288721
            ],
            [
              46.7142312,
              24.6287651
            ],
            [
              46.7142714,
              24.628765
            ],
            [
              46.7142716,
              24.628872
            ],
            [
              46.7142314,
              24.6288721
            ]
          ]
        ]
      },
      "id": "way/300654158"
    },
    {
      "type": "Feature",
      "properties": {
        "@id": "way/300654159",
        "building": "yes",
        "@timestamp": "2014-08-28T14:42:05Z",
        "@version": "1",
        "@changeset": "25075287",
        "@user": "keepright! ler",
        "@uid": "1731253"
      },
      "geometry": {
        "type": "Polygon",
        "coordinates": [
          [
            [
              46.7141854,
              24.6288844
            ],
            [
              46.7142153,
              24.6288521
            ],
            [
              46.7142623,
              24.6288879
            ],
            [
              46.7142556,
              24.6289379
            ],
            [
              46.7141854,
              24.6288844
            ]
          ]
        ]
      },
      "id": "way/300654159"
    },
    {
      "type": "Feature",
      "properties": {
        "@id": "way/300654160",
        "building": "yes",
        "@timestamp": "2014-08-28T14:42:05Z",
        "@version": "1",
        "@changeset": "25075287",
        "@user": "keepright! ler",
        "@uid": "1731253"
      },
      "geometry": {
        "type": "Polygon",
        "coordinates": [
          [
            [
              46.7142312,
              24.6287651
            ],
            [
              46.7141968,
              24.6287356
            ],
            [
              46.7142274,
              24.6287061
            ],
            [
              46.7142617,
              24.6287355
            ],
            [
              46.7142312,
              24.6287651
            ]
          ]
        ]
      },
      "id": "way/300654160"
    },
    {
      "type": "Feature",
      "properties": {
        "@id": "way/638609592",
        "building": "retail",
        "@timestamp": "2018-10-27T22:18:48Z",
        "@version": "1",
        "@changeset": "63938567",
        "@user": "Seandebasti",
        "@uid": "550560",
        "@tainted": true
      },
      "geometry": {
        "type": "Polygon",
        "coordinates": [
          [
            [
              46.7139082,
              24.6319993
            ],
            [
              46.7141813,
              24.631089
            ],
            [
              46.7153572,
              24.6314234
            ],
            [
              46.7139082,
              24.6319993
            ]
          ]
        ]
      },
      "id": "way/638609592"
    },
    {
      "type": "Feature",
      "properties": {
        "@id": "way/638650841",
        "building": "yes",
        "internet_access": "yes",
        "level": "-1",
        "name": "Qasr al Hokm Iconic Station",
        "name:ar": "محطة قصر الحكم",
        "note": "Transferable",
        "public_transport": "station",
        "railway": "station",
        "station": "subway",
        "subway": "yes",
        "@timestamp": "2020-02-02T11:37:41Z",
        "@version": "5",
        "@changeset": "80432682",
        "@user": "WASO",
        "@uid": "348406",
        "@tainted": true,
        "@relations": [
          {
            "role": "",
            "rel": "8857089",
            "reltags": {
              "colour": "#0000ff",
              "name": "1 Blue Line",
              "network": "Riyadh Transit Network",
              "ref": "1",
              "route": "subway",
              "type": "route"
            }
          },
          {
            "role": "",
            "rel": "8857387",
            "reltags": {
              "colour": "#ffa500",
              "name": "3 Orange Line",
              "public_transport:version": "2",
              "route": "subway",
              "type": "route"
            }
          }
        ]
      },
      "geometry": {
        "type": "LineString",
        "coordinates": [

            [
              46.7154501,
              24.6285369
            ],
            [
              46.7154501,
              24.6285369
            ]

        ]
      },
      "id": "way/638650841"
    },
    {
      "type": "Feature",
      "properties": {
        "@id": "way/773054567",
        "name": "Beshair's Park",
        "source": "GPS",
        "tourism": "caravan_site",
        "@timestamp": "2020-02-17T05:26:00Z",
        "@version": "1",
        "@changeset": "81092555",
        "@user": "Beshair",
        "@uid": "10732625",
        "@tainted": true
      },
      "geometry": {
        "type": "Polygon",
        "coordinates": [
          [
            [
              46.7102836,
              24.630029
            ],
            [
              46.7095611,
              24.6289962
            ],
            [
              46.7105036,
              24.6290586
            ],
            [
              46.7104607,
              24.6297023
            ],
            [
              46.7102836,
              24.630029
            ]
          ]
        ]
      },
      "id": "way/773054567"
    },
    {
      "type": "Feature",
      "properties": {
        "@id": "way/773058028",
        "designation": "latifa",
        "landuse": "industrial",
        "name": "latifa park",
        "source": "latifa",
        "@timestamp": "2020-02-17T05:56:53Z",
        "@version": "3",
        "@changeset": "81093620",
        "@user": "latifaz",
        "@uid": "10732620"
      },
      "geometry": {
        "type": "Polygon",
        "coordinates": [
          [
            [
              46.7124578,
              24.6293765
            ],
            [
              46.712184,
              24.629742
            ],
            [
              46.7118356,
              24.629596
            ],
            [
              46.7118517,
              24.6291181
            ],
            [
              46.7124578,
              24.6293765
            ]
          ]
        ]
      },
      "id": "way/773058028"
    },
    {
      "type": "Feature",
      "properties": {
        "@id": "way/40589080",
        "highway": "residential",
        "name": "الثميري",
        "name:en": "Al Thumeiri",
        "@timestamp": "2020-03-08T08:37:03Z",
        "@version": "10",
        "@changeset": "81917336",
        "@user": "Moutasem Alkasasbeh",
        "@uid": "10819195"
      },
      "geometry": {
        "type": "LineString",
        "coordinates": [
          [
            46.7152722,
            24.6310691
          ],
          [
            46.7150291,
            24.6310061
          ],
          [
            46.7137174,
            24.6306662
          ],
          [
            46.713233,
            24.630536
          ],
          [
            46.7129104,
            24.6304493
          ],
          [
            46.7121255,
            24.6301412
          ],
          [
            46.712108,
            24.6299979
          ]
        ]
      },
      "id": "way/40589080"
    },
    {
      "type": "Feature",
      "properties": {
        "@id": "way/43510284",
        "highway": "secondary",
        "name": "الإمام تركي بن عبدالله",
        "name:en": "Al Imam Turkey Bin Abdullah St",
        "oneway": "yes",
        "@timestamp": "2020-06-15T22:08:44Z",
        "@version": "12",
        "@changeset": "86689032",
        "@user": "Amjd777",
        "@uid": "9484622",
        "@tainted": true
      },
      "geometry": {
        "type": "LineString",
        "coordinates": [
          [
            46.7131986,
            24.6321214
          ],
          [
            46.7126683,
            24.6319928
          ],
          [
            46.7123746,
            24.6319217
          ],
          [
            46.7121834,
            24.6318753
          ],
          [
            46.7117253,
            24.6317695
          ],
          [
            46.7115334,
            24.6317477
          ],
          [
            46.7104001,
            24.6316287
          ],
          [
            46.7096892,
            24.631554
          ]
        ]
      },
      "id": "way/43510284"
    },
    {
      "type": "Feature",
      "properties": {
        "@id": "way/43510411",
        "highway": "secondary",
        "name": "الإمام تركي بن عبدالله",
        "name:en": "Al Imam Turkey Bin Abdullah St",
        "oneway": "yes",
        "@timestamp": "2020-03-10T09:22:43Z",
        "@version": "7",
        "@changeset": "82000780",
        "@user": "moqtadar",
        "@uid": "10822713",
        "@tainted": true
      },
      "geometry": {
        "type": "LineString",
        "coordinates": [
          [
            46.7097254,
            24.6314077
          ],
          [
            46.711442,
            24.6315735
          ],
          [
            46.711751,
            24.6316351
          ],
          [
            46.7121608,
            24.6317003
          ],
          [
            46.7132389,
            24.6319532
          ],
          [
            46.7137938,
            24.6320833
          ]
        ]
      },
      "id": "way/43510411"
    },
    {
      "type": "Feature",
      "properties": {
        "@id": "way/43510925",
        "highway": "tertiary",
        "name": "الإمام محمد بن سعود بن مقرن",
        "name:en": "Al Imam Muhammed Bin S'Aud Bin Maqroon",
        "oneway": "yes",
        "@timestamp": "2020-03-10T11:35:56Z",
        "@version": "9",
        "@changeset": "82005904",
        "@user": "moqtadar",
        "@uid": "10822713",
        "@tainted": true,
        "@relations": [
          {
            "role": "from",
            "rel": "3997752",
            "reltags": {
              "restriction": "no_left_turn",
              "type": "restriction"
            }
          }
        ]
      },
      "geometry": {
        "type": "LineString",
        "coordinates": [
          [
            46.7094243,
            24.6288427
          ],
          [
            46.7094002,
            24.6290012
          ]
        ]
      },
      "id": "way/43510925"
    },
    {
      "type": "Feature",
      "properties": {
        "@id": "way/43511060",
        "highway": "residential",
        "name": "الإمام تركي بن عبدالله",
        "name:en": "Al Imam Turkey Bin Abdullah St",
        "@timestamp": "2020-03-10T09:22:43Z",
        "@version": "2",
        "@changeset": "82000780",
        "@user": "moqtadar",
        "@uid": "10822713"
      },
      "geometry": {
        "type": "LineString",
        "coordinates": [
          [
            46.7117253,
            24.6317695
          ],
          [
            46.711751,
            24.6316351
          ]
        ]
      },
      "id": "way/43511060"
    },
    {
      "type": "Feature",
      "properties": {
        "@id": "way/43511420",
        "building": "yes",
        "@timestamp": "2009-10-31T18:50:42Z",
        "@version": "1",
        "@changeset": "3000303",
        "@user": "t_woelk",
        "@uid": "52754",
        "@tainted": true
      },
      "geometry": {
        "type": "LineString",
        "coordinates": [
          [
            46.7095302,
            24.6298023
          ],
          [
            46.7097132,
            24.6299079
          ],
          [
            46.7096699,
            24.6300047
          ],
          [
            46.7097903,
            24.6300708
          ],
          [
            46.7098288,
            24.629974
          ],
          [
            46.7100551,
            24.6300708
          ]
        ]
      },
      "id": "way/43511420"
    },
    {
      "type": "Feature",
      "properties": {
        "@id": "way/43511628",
        "highway": "residential",
        "name": "الشيخ محمد بن عبدالوهاب",
        "name:en": "Ash Shaikh Muhammed Bin Abdul Wahab",
        "@timestamp": "2020-03-10T11:35:56Z",
        "@version": "4",
        "@changeset": "82005904",
        "@user": "moqtadar",
        "@uid": "10822713",
        "@tainted": true
      },
      "geometry": {
        "type": "LineString",
        "coordinates": [
          [
            46.712108,
            24.6299979
          ],
          [
            46.7118126,
            24.6298859
          ],
          [
            46.7117452,
            24.6296527
          ],
          [
            46.7116966,
            24.6290083
          ]
        ]
      },
      "id": "way/43511628"
    },
    {
      "type": "Feature",
      "properties": {
        "@id": "way/43532315",
        "highway": "residential",
        "name": "آل سويلم",
        "name:en": "Al Soweilem",
        "@timestamp": "2020-03-10T09:22:43Z",
        "@version": "9",
        "@changeset": "82000780",
        "@user": "moqtadar",
        "@uid": "10822713",
        "@tainted": true
      },
      "geometry": {
        "type": "LineString",
        "coordinates": [
          [
            46.7097254,
            24.6314077
          ],
          [
            46.7096892,
            24.631554
          ],
          [
            46.7095575,
            24.6321245
          ],
          [
            46.7095521,
            24.6321478
          ]
        ]
      },
      "id": "way/43532315"
    },
    {
      "type": "Feature",
      "properties": {
        "@id": "way/43537735",
        "highway": "pedestrian",
        "@timestamp": "2020-03-10T11:22:43Z",
        "@version": "2",
        "@changeset": "82005501",
        "@user": "moqtadar",
        "@uid": "10822713"
      },
      "geometry": {
        "type": "LineString",
        "coordinates": [
          [
            46.7116966,
            24.6290083
          ],
          [
            46.7118966,
            24.6290488
          ],
          [
            46.7119205,
            24.6290588
          ],
          [
            46.7126397,
            24.6293597
          ]
        ]
      },
      "id": "way/43537735"
    },
    {
      "type": "Feature",
      "properties": {
        "@id": "way/43537736",
        "highway": "pedestrian",
        "@timestamp": "2009-11-01T03:22:08Z",
        "@version": "1",
        "@changeset": "3003418",
        "@user": "t_woelk",
        "@uid": "52754"
      },
      "geometry": {
        "type": "LineString",
        "coordinates": [
          [
            46.7118966,
            24.6290488
          ],
          [
            46.7121827,
            24.6286736
          ],
          [
            46.7123685,
            24.6284018
          ]
        ]
      },
      "id": "way/43537736"
    },
    {
      "type": "Feature",
      "properties": {
        "@id": "way/43537737",
        "highway": "pedestrian",
        "@timestamp": "2014-03-01T10:57:44Z",
        "@version": "2",
        "@changeset": "20842857",
        "@user": "keepright! ler",
        "@uid": "1731253"
      },
      "geometry": {
        "type": "LineString",
        "coordinates": [
          [
            46.7121827,
            24.6286736
          ],
          [
            46.7128834,
            24.6289578
          ],
          [
            46.71298,
            24.6290054
          ]
        ]
      },
      "id": "way/43537737"
    },
    {
      "type": "Feature",
      "properties": {
        "@id": "way/43537743",
        "highway": "track",
        "tracktype": "grade1",
        "@timestamp": "2014-03-01T10:57:46Z",
        "@version": "2",
        "@changeset": "20842857",
        "@user": "keepright! ler",
        "@uid": "1731253"
      },
      "geometry": {
        "type": "LineString",
        "coordinates": [
          [
            46.7148336,
            24.630291
          ],
          [
            46.7146109,
            24.6302496
          ],
          [
            46.7141866,
            24.6301828
          ],
          [
            46.7139432,
            24.6301386
          ]
        ]
      },
      "id": "way/43537743"
    },
    {
      "type": "Feature",
      "properties": {
        "@id": "way/43537744",
        "highway": "service",
        "@timestamp": "2020-03-08T08:37:03Z",
        "@version": "3",
        "@changeset": "81917336",
        "@user": "Moutasem Alkasasbeh",
        "@uid": "10819195",
        "@tainted": true
      },
      "geometry": {
        "type": "LineString",
        "coordinates": [
          [
            46.7148336,
            24.630291
          ],
          [
            46.7151332,
            24.6303367
          ],
          [
            46.7151671,
            24.6303407
          ]
        ]
      },
      "id": "way/43537744"
    },
    {
      "type": "Feature",
      "properties": {
        "@id": "way/43537745",
        "highway": "service",
        "@timestamp": "2014-03-01T10:57:46Z",
        "@version": "3",
        "@changeset": "20842857",
        "@user": "keepright! ler",
        "@uid": "1731253"
      },
      "geometry": {
        "type": "LineString",
        "coordinates": [
          [
            46.7139432,
            24.6301386
          ],
          [
            46.7138607,
            24.6300422
          ],
          [
            46.7136962,
            24.6298908
          ],
          [
            46.7133076,
            24.629533
          ]
        ]
      },
      "id": "way/43537745"
    },
    {
      "type": "Feature",
      "properties": {
        "@id": "way/43537746",
        "highway": "service",
        "@timestamp": "2020-03-08T08:37:03Z",
        "@version": "3",
        "@changeset": "81917336",
        "@user": "Moutasem Alkasasbeh",
        "@uid": "10819195"
      },
      "geometry": {
        "type": "LineString",
        "coordinates": [
          [
            46.7133076,
            24.629533
          ],
          [
            46.7135861,
            24.6292856
          ]
        ]
      },
      "id": "way/43537746"
    },
    {
      "type": "Feature",
      "properties": {
        "@id": "way/43537747",
        "highway": "service",
        "name": "Diar Bakri",
        "name:en": "الديار بكري",
        "@timestamp": "2020-03-08T08:37:03Z",
        "@version": "2",
        "@changeset": "81917336",
        "@user": "Moutasem Alkasasbeh",
        "@uid": "10819195"
      },
      "geometry": {
        "type": "LineString",
        "coordinates": [
          [
            46.7135861,
            24.6292856
          ],
          [
            46.7132879,
            24.6291492
          ],
          [
            46.71298,
            24.6290054
          ]
        ]
      },
      "id": "way/43537747"
    },
    {
      "type": "Feature",
      "properties": {
        "@id": "way/43537748",
        "highway": "service",
        "name": "هلال بن المحسن",
        "name:en": "Hilal bin Mohsen",
        "@timestamp": "2020-03-08T08:37:03Z",
        "@version": "2",
        "@changeset": "81917336",
        "@user": "Moutasem Alkasasbeh",
        "@uid": "10819195"
      },
      "geometry": {
        "type": "LineString",
        "coordinates": [
          [
            46.713009,
            24.6294493
          ],
          [
            46.7125493,
            24.6297681
          ],
          [
            46.7121721,
            24.6299997
          ]
        ]
      },
      "id": "way/43537748"
    },
    {
      "type": "Feature",
      "properties": {
        "@id": "way/43537749",
        "highway": "service",
        "@timestamp": "2009-11-01T03:22:25Z",
        "@version": "1",
        "@changeset": "3003418",
        "@user": "t_woelk",
        "@uid": "52754"
      },
      "geometry": {
        "type": "LineString",
        "coordinates": [
          [
            46.7125493,
            24.6297681
          ],
          [
            46.7127393,
            24.6300083
          ],
          [
            46.7127586,
            24.6301139
          ],
          [
            46.7127104,
            24.630246
          ]
        ]
      },
      "id": "way/43537749"
    },
    {
      "type": "Feature",
      "properties": {
        "@id": "way/43537750",
        "highway": "service",
        "@timestamp": "2014-03-01T10:57:46Z",
        "@version": "2",
        "@changeset": "20842857",
        "@user": "keepright! ler",
        "@uid": "1731253"
      },
      "geometry": {
        "type": "LineString",
        "coordinates": [
          [
            46.7148336,
            24.630291
          ],
          [
            46.7148493,
            24.6298064
          ],
          [
            46.7146689,
            24.6297715
          ],
          [
            46.7141984,
            24.6296606
          ],
          [
            46.7138607,
            24.6300422
          ]
        ]
      },
      "id": "way/43537750"
    },
    {
      "type": "Feature",
      "properties": {
        "@id": "way/43537751",
        "highway": "service",
        "@timestamp": "2014-03-01T10:57:46Z",
        "@version": "2",
        "@changeset": "20842857",
        "@user": "keepright! ler",
        "@uid": "1731253"
      },
      "geometry": {
        "type": "LineString",
        "coordinates": [
          [
            46.7139432,
            24.6301386
          ],
          [
            46.7137987,
            24.6304529
          ],
          [
            46.7137174,
            24.6306662
          ]
        ]
      },
      "id": "way/43537751"
    },
    {
      "type": "Feature",
      "properties": {
        "@id": "way/43537752",
        "highway": "service",
        "@timestamp": "2009-11-01T03:22:29Z",
        "@version": "1",
        "@changeset": "3003418",
        "@user": "t_woelk",
        "@uid": "52754"
      },
      "geometry": {
        "type": "LineString",
        "coordinates": [
          [
            46.7136962,
            24.6298908
          ],
          [
            46.713233,
            24.630536
          ]
        ]
      },
      "id": "way/43537752"
    },
    {
      "type": "Feature",
      "properties": {
        "@id": "way/43537756",
        "highway": "residential",
        "name": "العويقل",
        "name:en": "Al Oweiqel",
        "@timestamp": "2020-03-08T08:37:03Z",
        "@version": "3",
        "@changeset": "81917336",
        "@user": "Moutasem Alkasasbeh",
        "@uid": "10819195"
      },
      "geometry": {
        "type": "LineString",
        "coordinates": [
          [
            46.7149821,
            24.629356
          ],
          [
            46.7153625,
            24.6288849
          ]
        ]
      },
      "id": "way/43537756"
    },
    {
      "type": "Feature",
      "properties": {
        "@id": "way/43537758",
        "highway": "footway",
        "@timestamp": "2014-03-01T10:57:46Z",
        "@version": "2",
        "@changeset": "20842857",
        "@user": "keepright! ler",
        "@uid": "1731253",
        "@tainted": true
      },
      "geometry": {
        "type": "LineString",
        "coordinates": [
          [
            46.7147155,
            24.6295698
          ],
          [
            46.7142465,
            24.6294757
          ],
          [
            46.7142995,
            24.6292601
          ],
          [
            46.7142993,
            24.6291069
          ],
          [
            46.7142851,
            24.6286923
          ],
          [
            46.714261,
            24.6286131
          ],
          [
            46.7142417,
            24.6284854
          ],
          [
            46.7141963,
            24.6284157
          ]
        ]
      },
      "id": "way/43537758"
    },
    {
      "type": "Feature",
      "properties": {
        "@id": "way/43537759",
        "highway": "footway",
        "@timestamp": "2014-03-01T10:57:46Z",
        "@version": "2",
        "@changeset": "20842857",
        "@user": "keepright! ler",
        "@uid": "1731253"
      },
      "geometry": {
        "type": "LineString",
        "coordinates": [
          [
            46.7142993,
            24.6291069
          ],
          [
            46.7142289,
            24.6291117
          ],
          [
            46.7141405,
            24.62915
          ],
          [
            46.7137286,
            24.6294543
          ]
        ]
      },
      "id": "way/43537759"
    },
    {
      "type": "Feature",
      "properties": {
        "@id": "way/43537761",
        "highway": "footway",
        "@timestamp": "2014-03-01T10:57:46Z",
        "@version": "2",
        "@changeset": "20842857",
        "@user": "keepright! ler",
        "@uid": "1731253"
      },
      "geometry": {
        "type": "LineString",
        "coordinates": [
          [
            46.7142289,
            24.6291117
          ],
          [
            46.7140338,
            24.6289137
          ],
          [
            46.7140228,
            24.6289075
          ],
          [
            46.7140143,
            24.6289066
          ],
          [
            46.7140069,
            24.6289085
          ],
          [
            46.71397,
            24.628874
          ]
        ]
      },
      "id": "way/43537761"
    },
    {
      "type": "Feature",
      "properties": {
        "@id": "way/43537763",
        "highway": "footway",
        "@timestamp": "2014-03-01T10:59:58Z",
        "@version": "2",
        "@changeset": "20842883",
        "@user": "keepright! ler",
        "@uid": "1731253"
      },
      "geometry": {
        "type": "LineString",
        "coordinates": [
          [
            46.713009,
            24.6294493
          ],
          [
            46.7131399,
            24.6293457
          ],
          [
            46.7132879,
            24.6291492
          ]
        ]
      },
      "id": "way/43537763"
    },
    {
      "type": "Feature",
      "properties": {
        "@id": "way/43537764",
        "highway": "footway",
        "@timestamp": "2014-03-01T10:57:45Z",
        "@version": "2",
        "@changeset": "20842857",
        "@user": "keepright! ler",
        "@uid": "1731253"
      },
      "geometry": {
        "type": "LineString",
        "coordinates": [
          [
            46.7134067,
            24.6289005
          ],
          [
            46.7134695,
            24.6286708
          ],
          [
            46.7134079,
            24.6284878
          ]
        ]
      },
      "id": "way/43537764"
    },
    {
      "type": "Feature",
      "properties": {
        "@id": "way/43537765",
        "highway": "residential",
        "name": "يونس بن عمر",
        "name:en": "Yunas Bin Omar",
        "@timestamp": "2020-03-08T08:37:03Z",
        "@version": "3",
        "@changeset": "81917336",
        "@user": "Moutasem Alkasasbeh",
        "@uid": "10819195",
        "@tainted": true
      },
      "geometry": {
        "type": "LineString",
        "coordinates": [
          [
            46.7142993,
            24.6291069
          ],
          [
            46.7144023,
            24.629147
          ],
          [
            46.7147377,
            24.6292777
          ],
          [
            46.7149821,
            24.629356
          ],
          [
            46.7152866,
            24.6294538
          ]
        ]
      },
      "id": "way/43537765"
    },
    {
      "type": "Feature",
      "properties": {
        "@id": "way/43537766",
        "highway": "footway",
        "@timestamp": "2020-03-08T09:03:53Z",
        "@version": "5",
        "@changeset": "81917740",
        "@user": "Moutasem Alkasasbeh",
        "@uid": "10819195"
      },
      "geometry": {
        "type": "LineString",
        "coordinates": [
          [
            46.7138874,
            24.6290198
          ],
          [
            46.7138726,
            24.6289727
          ],
          [
            46.71397,
            24.628874
          ],
          [
            46.7141157,
            24.6287263
          ],
          [
            46.7141302,
            24.6287223
          ],
          [
            46.7141447,
            24.6287294
          ],
          [
            46.714186,
            24.6287994
          ],
          [
            46.7142095,
            24.6288146
          ]
        ]
      },
      "id": "way/43537766"
    },
    {
      "type": "Feature",
      "properties": {
        "@id": "way/263935305",
        "highway": "residential",
        "name": "ناصر بن دقماق",
        "name:en": "Nasser bin Duqmaq",
        "@timestamp": "2020-03-10T11:22:43Z",
        "@version": "3",
        "@changeset": "82005501",
        "@user": "moqtadar",
        "@uid": "10822713"
      },
      "geometry": {
        "type": "LineString",
        "coordinates": [
          [
            46.7138083,
            24.6290884
          ],
          [
            46.7134067,
            24.6289005
          ],
          [
            46.7131605,
            24.6287862
          ]
        ]
      },
      "id": "way/263935305"
    },
    {
      "type": "Feature",
      "properties": {
        "@id": "way/263935306",
        "highway": "footway",
        "@timestamp": "2014-03-01T10:57:43Z",
        "@version": "1",
        "@changeset": "20842857",
        "@user": "keepright! ler",
        "@uid": "1731253",
        "@tainted": true
      },
      "geometry": {
        "type": "LineString",
        "coordinates": [
          [
            46.7142417,
            24.6284854
          ],
          [
            46.7143573,
            24.6284942
          ]
        ]
      },
      "id": "way/263935306"
    },
    {
      "type": "Feature",
      "properties": {
        "@id": "way/263935307",
        "highway": "service",
        "@timestamp": "2014-03-01T10:57:43Z",
        "@version": "1",
        "@changeset": "20842857",
        "@user": "keepright! ler",
        "@uid": "1731253"
      },
      "geometry": {
        "type": "LineString",
        "coordinates": [
          [
            46.7147377,
            24.6292777
          ],
          [
            46.7147155,
            24.6295698
          ],
          [
            46.7146689,
            24.6297715
          ]
        ]
      },
      "id": "way/263935307"
    },
    {
      "type": "Feature",
      "properties": {
        "@id": "way/263935308",
        "highway": "residential",
        "@timestamp": "2014-03-01T10:57:43Z",
        "@version": "1",
        "@changeset": "20842857",
        "@user": "keepright! ler",
        "@uid": "1731253",
        "@tainted": true
      },
      "geometry": {
        "type": "LineString",
        "coordinates": [
          [
            46.7103337,
            24.6321258
          ],
          [
            46.7104209,
            24.63205
          ]
        ]
      },
      "id": "way/263935308"
    },
    {
      "type": "Feature",
      "properties": {
        "@id": "way/300654153",
        "highway": "pedestrian",
        "@timestamp": "2014-08-28T14:42:05Z",
        "@version": "1",
        "@changeset": "25075287",
        "@user": "keepright! ler",
        "@uid": "1731253"
      },
      "geometry": {
        "type": "LineString",
        "coordinates": [
          [
            46.7109573,
            24.6305376
          ],
          [
            46.7109617,
            24.6304442
          ],
          [
            46.710994,
            24.6303718
          ],
          [
            46.7110293,
            24.6303379
          ],
          [
            46.7112826,
            24.6303674
          ],
          [
            46.7113421,
            24.6303268
          ],
          [
            46.7126971,
            24.630955
          ],
          [
            46.7127574,
            24.6310072
          ],
          [
            46.7127967,
            24.6310812
          ],
          [
            46.7128148,
            24.6312156
          ],
          [
            46.7127514,
            24.6314323
          ]
        ]
      },
      "id": "way/300654153"
    },
    {
      "type": "Feature",
      "properties": {
        "@id": "way/300654154",
        "highway": "service",
        "service": "parking_aisle",
        "@timestamp": "2014-08-28T14:42:05Z",
        "@version": "1",
        "@changeset": "25075287",
        "@user": "keepright! ler",
        "@uid": "1731253"
      },
      "geometry": {
        "type": "LineString",
        "coordinates": [
          [
            46.7127514,
            24.6314323
          ],
          [
            46.7126729,
            24.6316189
          ],
          [
            46.7124587,
            24.631564
          ],
          [
            46.7125281,
            24.6313775
          ],
          [
            46.7127514,
            24.6314323
          ],
          [
            46.7133519,
            24.6315941
          ],
          [
            46.7138921,
            24.6317396
          ],
          [
            46.7138429,
            24.6319115
          ],
          [
            46.7137938,
            24.6320833
          ]
        ]
      },
      "id": "way/300654154"
    },
    {
      "type": "Feature",
      "properties": {
        "@id": "way/300654155",
        "highway": "service",
        "service": "parking_aisle",
        "@timestamp": "2014-08-28T14:42:05Z",
        "@version": "1",
        "@changeset": "25075287",
        "@user": "keepright! ler",
        "@uid": "1731253"
      },
      "geometry": {
        "type": "LineString",
        "coordinates": [
          [
            46.7133519,
            24.6315941
          ],
          [
            46.7132905,
            24.6317733
          ],
          [
            46.7132389,
            24.6319532
          ]
        ]
      },
      "id": "way/300654155"
    },
    {
      "type": "Feature",
      "properties": {
        "@id": "way/300654156",
        "highway": "service",
        "service": "parking_aisle",
        "@timestamp": "2014-08-28T14:42:05Z",
        "@version": "1",
        "@changeset": "25075287",
        "@user": "keepright! ler",
        "@uid": "1731253"
      },
      "geometry": {
        "type": "LineString",
        "coordinates": [
          [
            46.7138429,
            24.6319115
          ],
          [
            46.7132905,
            24.6317733
          ],
          [
            46.7126729,
            24.6316189
          ]
        ]
      },
      "id": "way/300654156"
    },
    {
      "type": "Feature",
      "properties": {
        "@id": "way/636436265",
        "landuse": "residential",
        "@timestamp": "2018-10-21T01:41:36Z",
        "@version": "1",
        "@changeset": "63717473",
        "@user": "Seandebasti",
        "@uid": "550560",
        "@tainted": true
      },
      "geometry": {
        "type": "LineString",
        "coordinates": [
          [
            46.7116914,
            24.6318787
          ],
          [
            46.7130114,
            24.6321683
          ]
        ]
      },
      "id": "way/636436265"
    },
    {
      "type": "Feature",
      "properties": {
        "@id": "way/741824096",
        "highway": "primary",
        "name": "طريق المدينة المنورة",
        "name:en": "Madina Munwarah",
        "oneway": "yes",
        "@timestamp": "2020-04-18T18:30:58Z",
        "@version": "9",
        "@changeset": "83752282",
        "@user": "az_az",
        "@uid": "10501218",
        "@tainted": true
      },
      "geometry": {
        "type": "LineString",
        "coordinates": [
          [
            46.7153625,
            24.6288849
          ],
          [
            46.7148817,
            24.6285553
          ]
        ]
      },
      "id": "way/741824096"
    },
    {
      "type": "Feature",
      "properties": {
        "@id": "way/773056533",
        "bicycle": "private",
        "cycleway": "track",
        "foot": "yes",
        "highway": "road",
        "lanes": "2",
        "maxspeed": "40",
        "name": "Beshair",
        "oneway": "no",
        "sidewalk": "both",
        "surface": "concrete",
        "@timestamp": "2020-02-17T05:36:59Z",
        "@version": "1",
        "@changeset": "81092555",
        "@user": "Beshair",
        "@uid": "10732625"
      },
      "geometry": {
        "type": "LineString",
        "coordinates": [
          [
            46.7094682,
            24.6289416
          ],
          [
            46.7105626,
            24.6290147
          ],
          [
            46.7105304,
            24.6296974
          ],
          [
            46.7102997,
            24.6300973
          ]
        ]
      },
      "id": "way/773056533"
    },
    {
      "type": "Feature",
      "properties": {
        "@id": "way/773058027",
        "@timestamp": "2020-02-17T05:51:37Z",
        "@version": "1",
        "@changeset": "81093620",
        "@user": "latifaz",
        "@uid": "10732620"
      },
      "geometry": {
        "type": "LineString",
        "coordinates": [
          [
            46.7118356,
            24.629596
          ],
          [
            46.7118517,
            24.6291181
          ]
        ]
      },
      "id": "way/773058027"
    },
    {
      "type": "Feature",
      "properties": {
        "@id": "way/779257209",
        "highway": "residential",
        "name": "عباس كرارة",
        "name:en": "Abbas Karrara",
        "@timestamp": "2020-03-08T08:37:03Z",
        "@version": "1",
        "@changeset": "81917336",
        "@user": "Moutasem Alkasasbeh",
        "@uid": "10819195"
      },
      "geometry": {
        "type": "LineString",
        "coordinates": [
          [
            46.7144023,
            24.629147
          ],
          [
            46.7148817,
            24.6285553
          ]
        ]
      },
      "id": "way/779257209"
    },
    {
      "type": "Feature",
      "properties": {
        "@id": "way/779257210",
        "highway": "residential",
        "@timestamp": "2020-03-08T08:37:03Z",
        "@version": "1",
        "@changeset": "81917336",
        "@user": "Moutasem Alkasasbeh",
        "@uid": "10819195"
      },
      "geometry": {
        "type": "LineString",
        "coordinates": [
          [
            46.7151671,
            24.6303407
          ],
          [
            46.7150291,
            24.6310061
          ]
        ]
      },
      "id": "way/779257210"
    },
    {
      "type": "Feature",
      "properties": {
        "@id": "way/779257211",
        "highway": "residential",
        "name": "الشيخ محمد بن إبراهيم",
        "name:en": "Al Shaikh Mohammed Ibn Ibrahim",
        "@timestamp": "2020-03-25T15:54:22Z",
        "@version": "5",
        "@changeset": "82618453",
        "@user": "Moutasem Alkasasbeh",
        "@uid": "10819195",
        "@tainted": true
      },
      "geometry": {
        "type": "LineString",
        "coordinates": [
          [
            46.712108,
            24.6299979
          ],
          [
            46.7121721,
            24.6299997
          ],
          [
            46.7123344,
            24.6297831
          ],
          [
            46.7126397,
            24.6293597
          ],
          [
            46.71298,
            24.6290054
          ],
          [
            46.7131605,
            24.6287862
          ],
          [
            46.7134079,
            24.6284878
          ]
        ]
      },
      "id": "way/779257211"
    },
    {
      "type": "Feature",
      "properties": {
        "@id": "way/779850214",
        "highway": "residential",
        "name": "أم سنون",
        "name:en": "Om Sounoun",
        "@timestamp": "2020-03-26T10:30:28Z",
        "@version": "2",
        "@changeset": "82654947",
        "@user": "BCNorwich",
        "@uid": "322785",
        "@tainted": true
      },
      "geometry": {
        "type": "LineString",
        "coordinates": [
          [
            46.710635,
            24.6321517
          ],
          [
            46.7105756,
            24.6321259
          ],
          [
            46.7105112,
            24.6320942
          ],
          [
            46.7104209,
            24.63205
          ],
          [
            46.7103995,
            24.6319649
          ],
          [
            46.7103879,
            24.6319187
          ],
          [
            46.7103905,
            24.6317066
          ],
          [
            46.7104001,
            24.6316287
          ]
        ]
      },
      "id": "way/779850214"
    },
    {
      "type": "Feature",
      "properties": {
        "@id": "way/779875201",
        "highway": "residential",
        "name": "محمد بن طولون",
        "name:en": "Mohammed Bin Tulon",
        "@timestamp": "2020-03-10T11:22:43Z",
        "@version": "1",
        "@changeset": "82005501",
        "@user": "moqtadar",
        "@uid": "10822713"
      },
      "geometry": {
        "type": "LineString",
        "coordinates": [
          [
            46.7126397,
            24.6293597
          ],
          [
            46.7116966,
            24.6290083
          ]
        ]
      },
      "id": "way/779875201"
    },
    {
      "type": "Feature",
      "properties": {
        "@id": "way/779875202",
        "highway": "residential",
        "@timestamp": "2020-04-18T18:30:58Z",
        "@version": "2",
        "@changeset": "83752282",
        "@user": "az_az",
        "@uid": "10501218",
        "@tainted": true
      },
      "geometry": {
        "type": "LineString",
        "coordinates": [
          [
            46.7119111,
            24.6290726
          ],
          [
            46.7119205,
            24.6290588
          ],
          [
            46.7121827,
            24.6286736
          ],
          [
            46.7123035,
            24.628496
          ],
          [
            46.7123746,
            24.6283873
          ]
        ]
      },
      "id": "way/779875202"
    },
    {
      "type": "Feature",
      "properties": {
        "@id": "way/779875204",
        "highway": "residential",
        "@timestamp": "2020-03-10T11:22:43Z",
        "@version": "1",
        "@changeset": "82005501",
        "@user": "moqtadar",
        "@uid": "10822713"
      },
      "geometry": {
        "type": "LineString",
        "coordinates": [
          [
            46.7131605,
            24.6287862
          ],
          [
            46.7130953,
            24.6287305
          ],
          [
            46.7123746,
            24.6283873
          ]
        ]
      },
      "id": "way/779875204"
    },
    {
      "type": "Feature",
      "properties": {
        "@id": "way/779875205",
        "highway": "residential",
        "name": "الديار بكري",
        "name:en": "Diar Bakri",
        "@timestamp": "2020-03-10T11:22:43Z",
        "@version": "1",
        "@changeset": "82005501",
        "@user": "moqtadar",
        "@uid": "10822713"
      },
      "geometry": {
        "type": "LineString",
        "coordinates": [
          [
            46.71298,
            24.6290054
          ],
          [
            46.7121827,
            24.6286736
          ]
        ]
      },
      "id": "way/779875205"
    },
    {
      "type": "Feature",
      "properties": {
        "@id": "way/784749420",
        "highway": "footway",
        "@timestamp": "2020-03-26T10:30:28Z",
        "@version": "1",
        "@changeset": "82654947",
        "@user": "BCNorwich",
        "@uid": "322785"
      },
      "geometry": {
        "type": "LineString",
        "coordinates": [
          [
            46.710635,
            24.6321517
          ],
          [
            46.7106245,
            24.632184
          ]
        ]
      },
      "id": "way/784749420"
    },
    {
      "type": "Feature",
      "properties": {
        "@id": "node/462607307",
        "alt_name": "قلعة مسمك",
        "historic": "castle",
        "name": "قلعة مسمك",
        "name:ar": "قلعة المصمك",
        "name:de": "Fort Masmak",
        "name:en": "Masmak fort",
        "tourism": "museum",
        "wikidata": "Q751987",
        "wikipedia": "en:Masmak fort",
        "@timestamp": "2017-10-05T16:14:10Z",
        "@version": "7",
        "@changeset": "52659134",
        "@user": "Claudius Henrichs",
        "@uid": "18069"
      },
      "geometry": {
        "type": "Point",
        "coordinates": [
          46.7133844,
          24.6311659
        ]
      },
      "id": "node/462607307"
    },
    {
      "type": "Feature",
      "properties": {
        "@id": "node/492782802",
        "religion": "muslim",
        "@timestamp": "2020-05-07T23:58:54Z",
        "@version": "2",
        "@changeset": "84857472",
        "@user": "ِA-F",
        "@uid": "10273571"
      },
      "geometry": {
        "type": "Point",
        "coordinates": [
          46.7098996,
          24.630992
        ]
      },
      "id": "node/492782802"
    },
    {
      "type": "Feature",
      "properties": {
        "@id": "node/492782810",
        "religion": "muslim",
        "@timestamp": "2020-05-07T23:58:54Z",
        "@version": "2",
        "@changeset": "84857472",
        "@user": "ِA-F",
        "@uid": "10273571"
      },
      "geometry": {
        "type": "Point",
        "coordinates": [
          46.7109545,
          24.6314402
        ]
      },
      "id": "node/492782810"
    },
    {
      "type": "Feature",
      "properties": {
        "@id": "node/492782822",
        "religion": "muslim",
        "@timestamp": "2020-05-07T23:58:54Z",
        "@version": "3",
        "@changeset": "84857472",
        "@user": "ِA-F",
        "@uid": "10273571"
      },
      "geometry": {
        "type": "Point",
        "coordinates": [
          46.7114244,
          24.6305768
        ]
      },
      "id": "node/492782822"
    },
    {
      "type": "Feature",
      "properties": {
        "@id": "node/549218411",
        "religion": "muslim",
        "@timestamp": "2020-05-07T23:58:54Z",
        "@version": "4",
        "@changeset": "84857472",
        "@user": "ِA-F",
        "@uid": "10273571"
      },
      "geometry": {
        "type": "Point",
        "coordinates": [
          46.7103842,
          24.6300815
        ]
      },
      "id": "node/549218411"
    },
    {
      "type": "Feature",
      "properties": {
        "@id": "node/549218416",
        "religion": "muslim",
        "@timestamp": "2020-05-07T23:58:54Z",
        "@version": "3",
        "@changeset": "84857472",
        "@user": "ِA-F",
        "@uid": "10273571"
      },
      "geometry": {
        "type": "Point",
        "coordinates": [
          46.7111205,
          24.6311043
        ]
      },
      "id": "node/549218416"
    },
    {
      "type": "Feature",
      "properties": {
        "@id": "node/549652235",
        "highway": "crossing",
        "@timestamp": "2020-03-10T11:22:43Z",
        "@version": "2",
        "@changeset": "82005501",
        "@user": "moqtadar",
        "@uid": "10822713"
      },
      "geometry": {
        "type": "Point",
        "coordinates": [
          46.7121827,
          24.6286736
        ]
      },
      "id": "node/549652235"
    },
    {
      "type": "Feature",
      "properties": {
        "@id": "node/549652278",
        "amenity": "place_of_worship",
        "religion": "muslim",
        "@timestamp": "2009-11-01T03:22:16Z",
        "@version": "1",
        "@changeset": "3003418",
        "@user": "t_woelk",
        "@uid": "52754"
      },
      "geometry": {
        "type": "Point",
        "coordinates": [
          46.7133364,
          24.6290136
        ]
      },
      "id": "node/549652278"
    },
    {
      "type": "Feature",
      "properties": {
        "@id": "node/549652280",
        "amenity": "place_of_worship",
        "religion": "muslim",
        "@timestamp": "2009-11-01T03:22:17Z",
        "@version": "1",
        "@changeset": "3003418",
        "@user": "t_woelk",
        "@uid": "52754"
      },
      "geometry": {
        "type": "Point",
        "coordinates": [
          46.7148484,
          24.6294714
        ]
      },
      "id": "node/549652280"
    },
    {
      "type": "Feature",
      "properties": {
        "@id": "node/549652460",
        "highway": "crossing",
        "@timestamp": "2020-03-10T09:22:43Z",
        "@version": "2",
        "@changeset": "82000780",
        "@user": "moqtadar",
        "@uid": "10822713"
      },
      "geometry": {
        "type": "Point",
        "coordinates": [
          46.7103995,
          24.6319649
        ]
      },
      "id": "node/549652460"
    },
    {
      "type": "Feature",
      "properties": {
        "@id": "node/1390483530",
        "amenity": "parking",
        "@timestamp": "2011-08-08T06:34:18Z",
        "@version": "1",
        "@changeset": "8954065",
        "@user": "Dugoon",
        "@uid": "123649"
      },
      "geometry": {
        "type": "Point",
        "coordinates": [
          46.715117,
          24.6305663
        ]
      },
      "id": "node/1390483530"
    },
    {
      "type": "Feature",
      "properties": {
        "@id": "node/3047483457",
        "religion": "muslim",
        "@timestamp": "2020-05-07T23:58:59Z",
        "@version": "2",
        "@changeset": "84857472",
        "@user": "ِA-F",
        "@uid": "10273571"
      },
      "geometry": {
        "type": "Point",
        "coordinates": [
          46.710994,
          24.6303718
        ]
      },
      "id": "node/3047483457"
    },
    {
      "type": "Feature",
      "properties": {
        "@id": "node/3128677323",
        "building": "commercial",
        "name": "Saudi buisness machine",
        "@timestamp": "2014-12-30T21:23:10Z",
        "@version": "3",
        "@changeset": "27809904",
        "@user": "Myazyk",
        "@uid": "899942"
      },
      "geometry": {
        "type": "Point",
        "coordinates": [
          46.7146356,
          24.6317157
        ]
      },
      "id": "node/3128677323"
    },
    {
      "type": "Feature",
      "properties": {
        "@id": "node/4712110689",
        "name": "My home elamtiaz",
        "name:ar": "My home elamtiaz",
        "tourism": "guest_house",
        "@timestamp": "2017-03-01T18:23:36Z",
        "@version": "1",
        "@changeset": "46500890",
        "@user": "Amr Elashker",
        "@uid": "5389154"
      },
      "geometry": {
        "type": "Point",
        "coordinates": [
          46.709632,
          24.631582
        ]
      },
      "id": "node/4712110689"
    },
    {
      "type": "Feature",
      "properties": {
        "@id": "node/6775952792",
        "GNS:dsg_code": "PPLX",
        "GNS:dsg_name": "section of populated place",
        "GNS:id": "14841501",
        "int_name": "Ad Daḩū",
        "name": "الدحو",
        "name:ar": "الدحو",
        "name:en": "Ad Dahu",
        "place": "suburb",
        "source:name": "GNS",
        "@timestamp": "2020-07-07T16:46:17Z",
        "@version": "2",
        "@changeset": "87665732",
        "@user": "حبيشان",
        "@uid": "1147414"
      },
      "geometry": {
        "type": "Point",
        "coordinates": [
          46.714299,
          24.629668
        ]
      },
      "id": "node/6775952792"
    },
    {
      "type": "Feature",
      "properties": {
        "@id": "node/7217806456",
        "leisure": "playground",
        "@timestamp": "2020-02-17T05:41:33Z",
        "@version": "1",
        "@changeset": "81092555",
        "@user": "Beshair",
        "@uid": "10732625"
      },
      "geometry": {
        "type": "Point",
        "coordinates": [
          46.7099097,
          24.6296008
        ]
      },
      "id": "node/7217806456"
    },
    {
      "type": "Feature",
      "properties": {
        "@id": "node/7217807259",
        "addr:housename": "Bikes",
        "name": "Bikes",
        "shop": "bicycle",
        "@timestamp": "2020-02-17T05:37:43Z",
        "@version": "1",
        "@changeset": "81092555",
        "@user": "Beshair",
        "@uid": "10732625"
      },
      "geometry": {
        "type": "Point",
        "coordinates": [
          46.7095932,
          24.6294448
        ]
      },
      "id": "node/7217807259"
    },
    {
      "type": "Feature",
      "properties": {
        "@id": "node/7217808926",
        "name": "Cake",
        "shop": "bakery",
        "@timestamp": "2020-02-17T05:39:03Z",
        "@version": "1",
        "@changeset": "81092555",
        "@user": "Beshair",
        "@uid": "10732625"
      },
      "geometry": {
        "type": "Point",
        "coordinates": [
          46.710178,
          24.6298544
        ]
      },
      "id": "node/7217808926"
    },
    {
      "type": "Feature",
      "properties": {
        "@id": "node/7217812548",
        "natural": "tree",
        "@timestamp": "2020-02-17T05:40:49Z",
        "@version": "1",
        "@changeset": "81092555",
        "@user": "Beshair",
        "@uid": "10732625"
      },
      "geometry": {
        "type": "Point",
        "coordinates": [
          46.7094752,
          24.629635
        ]
      },
      "id": "node/7217812548"
    },
    {
      "type": "Feature",
      "properties": {
        "@id": "node/7217814374",
        "amenity": "veterinary",
        "name": "Advanced clink",
        "@timestamp": "2020-02-17T05:39:38Z",
        "@version": "1",
        "@changeset": "81092555",
        "@user": "Beshair",
        "@uid": "10732625"
      },
      "geometry": {
        "type": "Point",
        "coordinates": [
          46.7104086,
          24.629123
        ]
      },
      "id": "node/7217814374"
    },
    {
      "type": "Feature",
      "properties": {
        "@id": "node/7217822056",
        "@timestamp": "2020-02-17T05:36:59Z",
        "@version": "1",
        "@changeset": "81092555",
        "@user": "Beshair",
        "@uid": "10732625"
      },
      "geometry": {
        "type": "Point",
        "coordinates": [
          46.7094414,
          24.6289318
        ]
      },
      "id": "node/7217822056"
    },
    {
      "type": "Feature",
      "properties": {
        "@id": "node/7217824174",
        "amenity": "restaurant",
        "name": "Chillo",
        "@timestamp": "2020-02-17T05:38:32Z",
        "@version": "1",
        "@changeset": "81092555",
        "@user": "Beshair",
        "@uid": "10732625"
      },
      "geometry": {
        "type": "Point",
        "coordinates": [
          46.7098722,
          24.6291961
        ]
      },
      "id": "node/7217824174"
    },
    {
      "type": "Feature",
      "properties": {
        "@id": "node/7217826295",
        "highway": "bus_stop",
        "@timestamp": "2020-02-17T05:40:17Z",
        "@version": "1",
        "@changeset": "81092555",
        "@user": "Beshair",
        "@uid": "10732625"
      },
      "geometry": {
        "type": "Point",
        "coordinates": [
          46.7104086,
          24.6295667
        ]
      },
      "id": "node/7217826295"
    },
    {
      "type": "Feature",
      "properties": {
        "@id": "node/7217826296",
        "natural": "tree",
        "@timestamp": "2020-02-17T05:40:41Z",
        "@version": "1",
        "@changeset": "81092555",
        "@user": "Beshair",
        "@uid": "10732625"
      },
      "geometry": {
        "type": "Point",
        "coordinates": [
          46.709384,
          24.6296106
        ]
      },
      "id": "node/7217826296"
    },
    {
      "type": "Feature",
      "properties": {
        "@id": "node/7217846290",
        "shop": "supermarket",
        "@timestamp": "2020-02-17T05:54:06Z",
        "@version": "1",
        "@changeset": "81093620",
        "@user": "latifaz",
        "@uid": "10732620"
      },
      "geometry": {
        "type": "Point",
        "coordinates": [
          46.7122111,
          24.6294253
        ]
      },
      "id": "node/7217846290"
    },
    {
      "type": "Feature",
      "properties": {
        "@id": "node/7217846293",
        "amenity": "cafe",
        "@timestamp": "2020-02-17T05:54:06Z",
        "@version": "1",
        "@changeset": "81093620",
        "@user": "latifaz",
        "@uid": "10732620"
      },
      "geometry": {
        "type": "Point",
        "coordinates": [
          46.7120716,
          24.6295716
        ]
      },
      "id": "node/7217846293"
    },
    {
      "type": "Feature",
      "properties": {
        "@id": "node/7282125775",
        "highway": "crossing",
        "@timestamp": "2020-03-10T11:22:43Z",
        "@version": "1",
        "@changeset": "82005501",
        "@user": "moqtadar",
        "@uid": "10822713"
      },
      "geometry": {
        "type": "Point",
        "coordinates": [
          46.7119205,
          24.6290588
        ]
      },
      "id": "node/7282125775"
    },
    {
      "type": "Feature",
      "properties": {
        "@id": "node/7528796616",
        "name": "الرميح للبنادق الهوائيه",
        "shop": "weapons",
        "@timestamp": "2020-05-17T12:10:36Z",
        "@version": "1",
        "@changeset": "85332540",
        "@user": "mansour almanaa",
        "@uid": "10905530"
      },
      "geometry": {
        "type": "Point",
        "coordinates": [
          46.7119453,
          24.6294176
        ]
      },
      "id": "node/7528796616"
    }
  ]
}